Note ID	Français	Source	Speech	Text1	Note1	Hint1	Example1	Text2	Note2	Example2	text3	Note3	Example3	Text4	note4	Example4	English	Tags
-8219438417	2019			saan waa fila ani tan ni kɔnɔton														calendrier chiffre
-17509221102	à bouaké on doit parler jula.	bk		bouake kɔnɔ an ka kan ka julakan fɔ.														phrase
-43834129304	à cause de  / en raison de / gâce à	bk		kosɔn		Amidu jogo ma ɲi, o kosɔn teri tɛ a fɛ.		sababu fɛ										l12
-3421980794	à cause de cela...	bk		o lo kama...														phrase
-31737677739	à côté de	yq		gɛrɛfɛ														
27946172084	à l'école	yq		lakɔli la														phrase
27783419693	a leur insu			u ɲina ma														
-16607429763	à mon avis	bk		ne ya hakili la		ne hakili la, nin ma kan ka kɛ												phrase
27946171942	abandonner / laisser	yq		bila		O bila kɛrɛ fɛ.												v
-20534178906	abattoir	bk		misifaga yɔrɔ														
-48185883134	abeille	yq		liden		lidenw ka ca foro nin kɔnɔ												animal
-48185883133	accepter	yq		sɔn														vt
27946172048	accident	yq		kasara														
-18162364837	accompagner	yq	(v.)	blasira		N b'i blasira i ta so ni n ya mobili ye		bilasira…la										v
27946171965	accomplir / comptéter / réaliser	yq		dafa		Ala ka sago dafa												v
27946172149	accoucheuse	yq		tinminɛla														gens
27946171943	bienvenue	yq		i dan se				bisimila										v
27946172025	accuser / condamner	yq	(v.)	jalaki														v
27946172114	acheter			san	v													essentiel vt l7
27946172144	achever / terminer / finir (un travail)	yq		tila														v
-55856535175	adorer	yq		bato														v
27946171930	adulte	yq		baliku														gens
27946172107	affaiblir	yq		nagasi														v
-26935523175	affaire	bk		koo														essentiel
-26935477634	affaire bon	bk		koɲuman														
27946172023	affaire commerciale	yq		jagoko														
-48185883132	afin que / pour que	yd		walasa				janko			walisa ka…							essentiel l12
-55365479141	africain	bk		farafin														essentiel
27768736670	agneau	yq		sagaden														animal
27946171970	aider / assister	yq		dɛmɛ														v
3670486778	aigle	bk		segɛn														animal
1529227963980	ail	wt		layi														nourriture
1529143433490	aile	yq		gama fura														corp
-55856535138	aimer	yq		kanu														v
67339326626	ainsi / comme ça			ten		I kana kuma ten !												essentiel
27946171990	ajouter		(v.)	fara		ka fara o kan												v
28035546765	ajuster / aplanir / niveler	yq		dakɛɲɛ														v
68383266906	ali est une bonne personne			ali ye mɔgɔ nyuman ye														
68382609274	ali ka jan	cours		ali est grand														phrase
21895485548	allons	bk		an ya taga.	"<img src=""_CIV.png"">"									an ka taga.	"<img src=""_MLI.png"">"			MLI phrase
68384142440	allons vite avant qu’il ne pleuve.			an ye taga jonan sani sanji bε ben.														phrase
-40318372109	alors / puis / maintenant / donc	bk		ayiwa...														essentiel
1529703600712	ami(e)	kodi		teri				tericɛ			terimuso							essentiel l1
68384079903	amidou a un mauvais comportement pour cela il n’a pas d’amis.			amidu jogo ma ɲi, o kosɔn teri tɛ a fɛ.														phrase
-53958647743	amie	kodi		terimuso														essentiel
-48185883129	amitié	bk		teriya														
-15176919454	amour	yq		kanuya														essentiel
27946171925	ampoule	yq		anpuli														santé
27946172039	analyser	yq		ka sɛgɛsɛgɛ														v
27767656744	ananas	bk		ananas										jabibi	"<img src=""_MLI.png"">"			MLI nourriture
-4633547634	oncle			bɛmacɛ														marked v
-55856535154	âne	yq		fali	"<img src=""_BFA.png"">"			sofali										animal marked
-55856535123	ange	yq		mɛlɛkɛ														
1529143433472	animal domestique	yq		bɛgan	"<img src=""_CIV.png"">"	Soo ye bɛgan ye		bigan			bagan							animal
-53873263150	année	bk		saan														calendrier
1529599765613	années passées	jl 25		saan tɛmɛninw														
27946172055	annoncer	yq		ko fɔ														v
27946172086	annuler / arrêter / laisser	yq		dabila		A dabila!												v
-54126083347	août	yq		utikalo		mois de pluies fréquentes		uti			cɔɔcɔɔkalo							calendrier
27946172090	apaiser	yq		mada		dusu mala		mala										v
27946172155	appeler	yq		wele				kiri						weele			call	vt l7
1538903026921	âpre			basi		basi tɛ											bitter	
-53873236373	après / derrière	kodi		kɔ fɛ													after	essentiel
-48185883139	après demain	bk		sini kɛnɛ													day after tomorrow	calendrier
-19140267857	arachide	yq		tiga				tigɛn									peanuts	nourriture
-19139521467	arbre / bois	yq		yiri													tree / wood	
27946172119	arc en ciel	yq		sanmuru				ala ka muru									rainbow	
1528479911909	argent	yq		wari		N b’a fɛ ka mobili san nka wari tɛ n bolo.		warigwɛ		Ni wari tun bɛ i bolo, i tun bɛna mun san nyina							money	essentiel
1528479911910	argile	yq		bɔgɔn													clay	
ac0eae92-b771-4811-8705-b2cf5779f267	arranger (les choses) / régler (problème) / résoudre	yq	(v.)	ɲɛnabɔ				ɲɛ									arrange things	vt
27201819760	arrête !	bk		a dabla !	"<img src=""_CIV.png"">"			a to !									stop !	phrase
-17508246419	arrêter / construire	bk		lɔ													stop / build	v
21895511963	arretes-toi	bk		ile lɔ														phrase
27946172153	arrière petit fils	yq		tulomasama													great grand son	gens marked
1538147724121	venue / arrivé		(n.)	nako													arrival	
-3852135199	arriver	bk		se													arrive	v vi
1529143433475	artisant	yq		bololabaara													craftsman	gens marked
-17509681716	as-tu dit quelque chose?	bk		i ka dɔ fɔ wa?													Did you say something?	phrase
1529143433520	aspect / apparence / forme	yq		sawura													appearance	marked
-19140257313	assiette	bk		tasa													plate	essentiel
27946171994	athlète / sportif	yq		farijola				farikoloɲanagɛla			farikoloɲanagwɛla						athelete	gens marked
1529143433487	athlétisme	yq		farijo													athletics	
3845946176	attendre	yq	(v.)	kɔnɔ				makɔnɔ			kɔnɔni kɛ						wait	v
-8522151866	attends moi	bk		lɔ ka n kɔnɔ													wait for me	phrase
-31737763795	au dessus / sur	bk		kun na													on / on top	
1528479911911	au travail	yq		baarakɛyɔrɔ la													at work	
1528479911912	au-dessus / en haut	yq		san fɛ														essentiel
-19339921610	aubergine	bk		gɔyɔ														nourriture
-40927312869	aujourd'hui	yq		bi														calendrier
-55856535152	aussi			fana														essentiel
27946172099	automobiliste	yq		mobilitigi														gens
-53807402499	autre			wɛrɛ		saan wɛrɛ												essentiel
22159347319	avant de			kasɔrɔ ka		i bɛ i tɛgɛ ko kasɔrɔ ka domuni kɛ.											before	essentiel l12
-48185883138	avant hier	bk		kuna sini														calendrier
22159483862	avant que	yd		yani		Yani i facɛ ye nan, i ka kan ka yɔrɔ labɛn.				An ye taga jonan yani sanji bɛ ben.								essentiel l12
1539113758485	avenir	mwb		sinima				siniɲasigi										marked
27946172087	avertir	yq		lasɔmi														v
27946172002	aveugle	yq		fiyɛntɔ														gens santé wt
27946171927	avion	yq		aviyɔn														
27946172062	avortement	yq		kɔnɔcɛn														santé
-54126222165	avril	yq		awirilikalo		mois de grande chaleur		awirili			funtenibakalo							calendrier
1529678551519	ballon	yq		balɔn														
28382876274	banane			baranda										namasa	"<img src=""_MLI.png"">"			MLI nourriture
27809169045	barbe	yq		bonbonsi										boonsi	"<img src=""_MLI.png"">"			MLI corp
-55856535128	bateau	bk		kurunba				kurun										essentiel
-52670046300	beaucoup / nombreaux / abondance	kodi		caman				ca			caya							essentiel
4363400891	beaucoup de gens sont morts, mais moussa, lui, a survécu.	bk		mɔgɔw caman sala, musa kɔni balola.														phrase
28382876275	beignet de haricot	etb		sɔsɔ furu	"<img src=""_CIV.png"">"			faaro	"<img src=""_BFA.png""><br>"									nourriture
c25c5017-0b81-4201-aa10-6a33221570f8	bénédiction	yq		baraji				duga			duba							
27946171972	berger	yq		dɛndɛbaga				misigɛna			sagadɛndɛna							gens
1529143433509	besoin	yq	(n)	makoya														
27946172020	besoin		(v*)	mako		N Mako b'i la												v
27946171949	bien rasé	yq		bonbosi li koɲuman														santé
-48185682132	bientôt	yq		yanni dɔnni	bke													
-15267243828	blanc	yq		gɛ				gwɛman			jɛ							couleur
27946172031	blesser	yq		madimi		A madimina												marked santé unbouake
-7839977565	bleu	yq		bula				bulaman										couleur
1529143433474	bobo-dioulasso	yq		bobo-julaso														geo
-53257498070	boire	kodi	(v.)	min				mini kɛ										v
-53958647744	bolo	bk		bras / main														essentiel
-55856535118	bon	yq		ɲuman														essentiel
-48185883137	bon appétit	bk		ala y'a suma i kɔnɔ														phrase
30111284369	bon retour	kamagate		ala y'a ɲuma segi		retour / venir				ala ka ɲuman nan								
1529657783611	bon sens			hakili ɲuman														
4363400872	bon travail!	bk		i ni baara!														phrase salutations
4363400867	bon, je m'en vais.	bk		ayiwa, n be taga.														phrase
27946172106	bonne épouse / femme	yq		muso ɲuman														gens
-7878326931	bonne guerison	bk		ala y'a nɔgɔya kɛ														phrase
-25299906327	bonne journée	bk		ala ye bi nɔgɔya				ala bi diya										phrase
-27410066336	bonne nuit	bk		ala an bɔ su la														marked phrase
-27001294005	bonne route (arrivé / retour)	bk		ala y'a ɲuma nan														phrase
-27001359839	bonne route (arriver)	bk		ala y'a ɲuma se														marked phrase
-19754582047	bonne soirée	bk		ala ya wula nɔgɔya	"<img src=""_CIV.png"">"									ala ka wula nɔgɔya	"<img src=""_MLI.png"">"			MLI phrase
-5642987963	bonté	yq		ɲumanya				ɲumaya										
28382876276	bouillie / poison	yq		baga														nourriture
27946172156	bouillir	yq		wili wili														v
28382876277	bouillon	yq		nanji														nourriture
27946172133	bouton / furoncle	yq		suguni				sumunin										santé
27946172139	bras / main	yq		bolo														corp
-25715308632	c'est	kodi		lo	"<img src=""_CIV.png"">"			le / ne						don	"<img src=""_MLI.png"">"			MLI essentiel
1530699154018	c'est  ça			o lo	"<img src=""_CIV.png"">"			jati	"<img src=""_BFA.png"">"		ale lo							
26490421635	c'est à moi	bk		n ta lo	"<img src=""_CIV.png"">"									n ta don	"<img src=""_MLI.png"">"			MLI phrase
-55856535182	c'est bon	bk		a ka ɲi														essentiel
-5587347447	c'est comme ça	bk		a be ten														essentiel phrase
899da4f4-e157-4031-8e4b-cf59702a1303	c'est dangereux	yq		farati  b'a la														
-16607344084	c'est facile	bk		a ka nɔgɔ														phrase
22488632402	c'est l'homme qui fait l'homme	bk		mɔgɔ be yen mɔgɔ kɛ mɔgɔ ye														phrase
-53806166054	c'est mardi aujourd'hui	bk		bi ye tarata ye														calendrier phrase
-7539514123	c'est mieux aujourd'hui	bk		bi ka fisa														phrase
3317696881	c'est mieux.	bk		a ka fisa.														phrase
-5810084146	c'est moi	bk		ne lo														phrase
4363400861	c'est notre père.	bk		an facɛ lo.														phrase
-54218752719	c'est quelle chose?	bk		fɛɛn jumɛn lo?														phrase question
-52670184464	c'est qui	bk		jɔn lo														question l11
-54218752722	c'est quoi ?	bk		mun lo?		nin ye mun lo ye?												question l11
-53016196473	c'est trop  cher	bk		a sɔngɔ ka gwɛlɛ				a sɔngɔ ka ca										phrase
-8878884938	ca fait deux jours	bk		a kɛla tere fila	"<img src=""_CIV.png"">"			i ni fama	"<img src=""_CIV.png""> Odienné<br>"					i ni la fila	"<img src=""_MLI.png"">"			MLI essentiel phrase
1529143433514	cadeau	yq		nilifɛn				kado										
28382876278	café	yq		kafe														nourriture
3671015070	caffard	bk		ɲɛmbɛrɛ														animal bouake
-18767289424	cahier / papier	bk		sɛbɛ														essentiel
1529143433473	cailloux / gravier / pierre	yq		kabakuru	"<img src=""_CIV.png"">"				bɛrɛ									marked
1529678551512	calcul mathématique	yq		jateminɛ														
27946172083	camarade de classe	yq		lakɔli filankuru														gens
10324820876	canard	bk		tongonon														animal
-25715028728	canari	kodi		daga														essentiel
-53015534347	carotte	bk		karoti														nourriture
27946172046	carte	yq		karti														
28367283754	casser	alasane	(v.)	ci				kare										alasane
-54218752726	ce / celui-ci / celui-là	bk		nin														essentiel
-3852205822	ce jour-la	bk		o loon														calendrier
22161653911	ce n'est pas ça / lui	bk		ale tɛ														phrase
26490383932	ce n'est pas pour moi	bk		n ta tɛ														phrase
1528620781278	ce n'est pas tout / non seulement	dictionaire		o dɔrɔn tɛ														phrase
4363400885	ce sont ses parents qui ont arrangé le mariage.	bk		a balimaw lo ka furu siri.														phrase
27946172105	célibataire (femme)	yq		muso gwanna														gens
27946171956	célibataire (homme)	yq		cɛ gwanna														gens
-40927183476	cendre	yq		buguri				buguri(gwɛ)										
27946172097	centaines de millions	yq		miliyɔn kɛmɛ-kɛmɛ														chiffre
1529143433516	centrafrique	yq		santarafiriki														geo
27946171954	centre / milieu	yq		camancɛ	"<img src=""_CIV.png""><br>"	A bla a camancɛ la												essentiel
28368415340	cerveau	alasane		kun nɛɛn				zɛmɛ	abidjan					kùnkòlòsɛmɛ / kùnkòlòsɔmi	"<img src=""_MLI.png"">"			MLI corp
403694429	cesser / abandonner / arrêter / laisser	bk		dabla														bouake marked v
-19338911167	cest le prix	bk		a sɔngɔ lo														phrase
-16729707913	ceux la	bk		nunugu / nunu														essentiel
1529703600701	chaise	kodi		sigilan														essentiel l1
3755562597	chameau	yq		ɲɔgɔmɛ														animal
1529703600714	champ	kodi		foro														essentiel
-18161797927	champ de riz	bk		malo foro														
-7540359438	changement	yq		yɛlɛmali				yɛlɛmani										
-17233546115	changer	bk		yɛlɛma														v
-53241136646	chanson	bk		dɔnkili														
27946172159	charpentier / menuisier			yiri barakɛla	"<img src=""_CIV.png"">Bouaké"			yiri dɛsɛla			yiri gwingwila			yirinugula	"<img src=""_CIV.png"">"			gens unbouake
27946171974	chasseur	yq		doso				donso										gens
27946172012	chauffer	yq		gwan	(v.)	A gwana												vi
-53806567719	chauffeur	bk		sofɛricɛ														gens
-54031938759	chaussure	yq		samara				sanbara	"<img src=""_BFA.png"">"									essentiel
-17508390259	chef	bk		ɲamɔgɔ														gens
27946171980	chef corp habille	yq		faama														gens
-18162051855	chef d'état	bk		jamana kuntigi														
4896902309	chef de maison	bk		sotigi														gens
-18162015864	chef du village	bk		dugutigi														essentiel gens
27946172078	chef, propriétaire	yq		kuntigi				tigi										gens
-19140085269	chemin	bk		sira														essentiel
-54031985691	chemise	bk		dereke														essentiel
-18766798266	chercher	yq		ŋini														vt l7
-53958647742	cheveux	yq		kunsigi														MLI corp
1529657783606	cheville			???										ntama / ntamakuru	"<img src=""_MLI.png"">"			MLI corp
-55856535176	chèvre	yq		baa														animal
3670546453	chèvre de montagne	bk		kongo baa														animal
-19140002611	chiot	bk		wuluden														animal
1529599765401	choix	jl 8		sugandili														
-55856535142	chose	kodi		fɛɛn / fɛn	<img src='_CIV.png'/>													MLI essentiel
27946172118	ciel	yq		sankolo														
1529657783607	cil			ɲɛsi										ɲɛsi / ɲɛwolosi	"<img src=""_MLI.png"">"			corp MLI
27946171948	circoncision	yq		boloko				kɛnɛkɛnɛ						bolo koli				santé
27946171996	citoyen	yq		fasoden														gens
-19139969925	citron	bk		lenburu kumu														nourriture
-19139923953	cochon	bk		kɔkɔti														animal bouake
-54727531939	coeur	bk	(n.)	dusu				dusukun			sɔn							corp
27946172125	cohabitant	yq		sigiɲɔgɔw														gens
0f7aaa1a-8b0f-457d-925b-dfa437969f95	colère			dimiya														
1535205494493	colibri	rc		kɔnɔn dakalajan														animal
1529657783608	colonne vertébrale			kɔkolo										kɔkolo / jɔkolo	"<img src=""_MLI.png"">"			MLI corp
1451813917579	combien	yd		joli		Joli bɛ i kun / bolo												question l11
-53015967622	combien coute cet avocat?	bk		voca nin ye joli joli?														phrase question
-19339865406	combien côute les oignons	bk		jaba ye joli														phrase
-15267602340	combien d'argent sur toi	bk		joli bɛ i kuŋ / bolo														phrase
68383285942	combien ya t-il d’œufs dans le pannier ?			sisɛfan den joli be yen segi kɔnɔ?														
403627311	commencer	yq	(v.)	dabɔ				daminɛ			damina							leech v vi
-7539576588	comment va l'enfant	bk		den fari be di?														phrase
-54218752723	comment / de quelle façon?	bk		cogo di?		An bena kɛ cogo di?												question
-19139899404	commerçant	bk		jagokɛla				ferekɛla			feerelikɛla							gens
27946172022	commerce	yq		jago				jagokɛyɔrɔ										
7214395493	compatir			makari														marked wt
1529143433508	quelqu'un de compatissant	yq		makaritigi														marked
-54727441325	compréhension	yq		faamuli				faamuyali			famuli							
1445272529459	comprendre	yq		faamu		n ka faamu												vt
27946172088	comprimé	bk		filakise														gens
1529678551513	comptes	yq		jateminɛw														
1529227811242	concombre	wt		kɔkɔnburu														nourriture
1529143433492	condamnation	yq		jalakili														
28382876279	condiments	yq		nanfɛnw														nourriture
-7540204535	connaissance	yq	(n.)	lɔnniya														n
-7540249164	connaitre	bk		lɔn														essentiel v vt
-44639764826	conscience	bk		dusukun														
27946172080	conseiller	yq		ladi														v
27946171967	consonne	yq		dafata														
1529143433477	constructeur	yq		boon lɔbaga														gens
-4003352986	continue / vas-y	bk		a kɛ dɔrɔn				taga a fɛ			taga a man							bouake
-19139873076	coq	yq		dɔndɔn														animal
27768736662	corbeau	yq		kaankaan														animal
4542062599	coriandre	bk		kusubara														marked nourriture
27946171992	corps	yq		fari														corp
1529657783609	côte			galaga										galaka / sabakolo	"<img src=""_MLI.png"">"			corp MLI
27809169052	cou / gorge	yq		kaan		need example								kan / kankala	"<img src=""_MLI.png"">"			corp MLI
-52656018473	coudre	yq	(v.)	karan				kala										l7 v vt
27946172141	couper / traverser		(v.)	tigɛ														v
27946172063	couple	yq		kɔɲɔcɛ ni kɔɲɔmuso														gens marked
-5644181930	courage	rc		jagwɛlɛya	"<img src=""_CIV.png"">"									jagɛlɛya	"<img src=""_MLI.png"">"			MLI
27946171941	cousin			kanimɛ / kanimɛcɛ														gens
-25714986524	couteau	yq		muru														essentiel
-52656018472	couture	bk		karanni														
28368841297	crâne	alasane		kun kolo										kunkolo / kunkolofilen	"<img src=""_MLI.png"">"			MLI corp
27946172130	crapeau			tɔri	"<img src=""_CIV.png"">"													animal
-55856535166	créature	bk		danfɛn														
27946172070	cri	yq		kulekan														
2476966392	criquet / sauterelle	bk		tɔɔn	Bouake			ngreni	<img src='_CIV.png'/>Bouake		jolon							animal marked
3670593377	crocodile	bk		bamba														animal
-7539976876	cuillière	bk		kuru														
-53241205095	cuisine			gwa				gwabugu			tobili							essentiel
27946172042	cuisiner	yq		tobili kɛ														v
-7791941218	cuisse	bk		woto										woro	"<img src=""_MLI.png"">"			MLI corp
30113296305	d'ici peu / bientôt			yani dɔɔni														
8f72e15d-72e6-47bf-b99d-164b41eabc8c	danger			farati		Farati b'a la												
-52670184467	dans	yq	(prep.)	kɔnɔ		Bouaké kɔnɔ												essentiel
27946171923	dans nos régions	yq		an ka mara la														marked
-53545395743	danser	yq	(v.)	dɔn				dɔɔn kɛ										v
-3222246334	de temps en temps	bk		tuma dɔw														marked
-54292927907	décembre	yq		desanburukalo		mois de la fin de l'année		desanburu			sanlabankalo							calendrier
26490304959	déchirer	bk		farafara				faran										v
-55856535124	décider	yq		latigɛ														marked v
27946172142	découper	yq		tigɛtigɛ														v
-16729615293	découragement	yq		fari faga		I ka n jigitigɛ		dusu tiɲɛ			jigitigɛ							marked
1529143433495	découvrir			kɔrɔlɔn				bɔ fɛnkura kan										marked
-53873102985	demain	yq		sini														calendrier
-16979685475	demande lui	bk		a ɲini ka														phrase
40322027585	demande-toi	mwb		i yɛrɛ ɲininga ko														phrase
27809169059	dent	yq		ɲiin							ɲi	"<img src=""_MLI.png"">"						MLI corp
-55856535106	dépouilles, morts	bk		suw														
24580719515	depuis	bk		kabini		Kabini a nan na a ma a bamuso ye.												essentiel l12
28035546766	depuis 16 ans	yq		a saan 16 ye nin ye														v
68384216458	Depuis le décès de notre père, nous n’avons pas eu la tranquillité.			Kabini an facε sala, anugu ma ɲasuma.														phrase
27946172027	espoir / confiance		(n.)	jigi		N jigi b'a la.												n
1529191015378	désert	wt		kongokolon														
27946172019	déshabiller (se)	yq		faniw bɔ														v
-55856535121	désobéissant	bk		kanminɛ bali														unbouake
27946172033	dessous / sous			jukɔrɔ				dugu ma			duguman							essentiel
-55856535148	détruire	yq		halaki														v
-17509773102	deuxième nouvelle (un peu en dessous)	bk		dɔɔni be a kɔrɔ														phrase
1529678551506	deuxièmement	yq		filanan														chiffre essentiel
-8099771854	devant	yq kodi		ɲa fɛ	"<img src=""_CIV.png"">"			ɲɛ fɛ	"<img src=""_BFA.png"">"									essentiel
27946172050	devenir	yq		kɛ ... yɛ		need example												v
-4005544967	devoir	bk		ka kan ka														essentiel
1529143433522	diabète	yq		sukarobana														santé
27946172061	diarrhée	yq		kɔnɔboli														santé
-55856535181	dieu	bk		ala														essentiel
4363400860	dieu est unique.	bk		ala ye kelenpe ye.														phrase
-55000189432	dimanche	yq		dimansilɔn / hatilɔn	"<img src=""_CIV.png"">"			dimansilɔn	"<img src=""_BFA.png"">"					karidɔn / kari	"<img src=""_MLI.png"">"			MLI calendrier
1529143433482	diphtérie	yq		falakabana														santé
-52136464178	dire	kodi		fɔ			n bɛ julakan fɔ			Amidu bɛ jenbe fɔ la								v vt
1529143433500	discipline / éducation / obéissance	yq		kololi														
27783419593	discours / enseignement	jl 3	(n.)	karan														wt
-27414022752	discussion	bk		baro (n.)														essentiel
1529143433471	discuter / bavarder	yq		baro kɛ														essentiel vi
1529143433526	disenterie	yq		tɔgɔtɔgɔmi														santé
-55362297428	docteur	yq		dɔkɔtɔrɔcɛ				dɔgɔtɔrɔ										gens
-7792110343	doigt	yq		bolokumande	"<img src=""_CIV.png"">"			bolokanden						bolokɔni / bolonkɔni	"<img src=""_MLI.png"">"			MLI corp
-15266981711	donner / (livrer / fournir)	bk		di ... ma														v
-54218752725	dormir	yq		sinɔgɔ				sunɔgɔ										v
4294519453	dos	bk		kɔ														corp
27946171979	douanier	yq		duwaɲɛcɛ														gens
26641994456	douter	yq		siga		Siga t'a la												essentiel v
-55856535170	droite	bk		bolo ɲuman	"<img src=""_CIV.png"">"									kini bolo	"<img src=""_MLI.png"">"			MLI essentiel
27946172014	dûr / solide	yq		gwɛlɛ														essentiel
1529703600709	durer	kodi		mɛɛn														essentiel marked
3827696317	eau	yq		jii		Jii be kɛnɛya di												essentiel
-53958647739	école	yq		lakɔli														essentiel
-54218752724	écouter	yq		lamɛni kɛ														v
25097016718	écrire	yq		sɛbɛri kɛ														v
-48185883125	effort / encouragement	bk	(n.)	jijali														
30110950854	effort pour qu'ils ne te trouvent pas			jija kana to o b'i sɔrɔ		Jija Kana to o b'i sɔrɔ												
27946172029	effort sérieux	yq		jijali sobɛ														
4363400865	eh bien, la bouillie et le café ne sont pas la même chose.	bk		ayiwa, baga ni kafe tɛ kelen ye.														phrase
4363400868	eh bien, qu'est-ce qu'il est en train de faire?	bk		ayiwa, a be mun lo kɛla?														phrase
27946171951	élargir / grandir vénérer / respecter		(v.)	bonya		Mɔgɔ ka kan ka a bangebagaw bonya												v
27768736671	éléphant		(n.)	sama														animal
-53806211031	élève	yq		lakɔliden														gens
4363400888	elle nourrit dix personnes.	bk		a be mɔgɔ tan balo.														phrase
1529678551510	en bas	yq		duguman				jukɔrɔ			duguma							essentiel
-5043793285	en faisant / ce faisant	bk		kɛtɔ														essentiel
27946172036	en outre / par ailleurs / ensuite	yq		ka fara o kan				fan wɛrɛ fɛ										essentiel
-17508334753	en tout cas!	bk		akɔnii!														phrase
1529678551509	en ville	yq		dugukɔnɔ														
27946171920	enceinte	yq		kɔnɔman		A kɔnɔman lo												santé
-17508347819	encore	yq		tuguni				tugu										essentiel
-48185883127	encourager		(v.)	jija														marked v
-19139757608	endroit	kodi		yɔrɔ														essentiel
3661703856	endurance			muɲuli														wt
27946172102	endurer			muɲu														marked v
-34269420531	endurer / persévérer	bk		sɔmina														leech v
-55856535161	enfants	bk		denw				deenw										essentiel
27946172045	enseignant	yq		karamɔgɔ														gens
-18512229590	ensemble	kodi		ɲɔngɔn fɛ		An be ɲɔgɔn fɛ												essentiel
39597583385	entendre			lamɛn		N k'i lamɛn		mɛn										marked v
-53545395753	entente	bk		bɛn														
-15266935615	entrer	bk	(v.)	do				don										v
27946171926	envelope	yq		anwolopu														emprunt
ec608b75-8247-4755-b50a-8f28d8b8f071	envie	yq	(n.)	ko		a ko be na		nege										
27809169051	épaule	yq	(n.)	gama										kama	"<img src=""_MLI.png"">"			corp MLI
27946172007	epoux			furucɛ														gens
-17234185036	épreuve / crise / difficulté / tentation	bk		gwɛlɛya														marked
-4122869514	esclavage	bk		jɔnya														
4639316715	espérance	yq		jigiya														
27946172147	l'est	yq		tilebɔ				kɔrɔn fɛ			kɔrɔn							
-6414475196	est-ce que c'est intéressant?	bk		o ka di wa?														phrase question
4363400869	est-ce que ton travail te satisfait?	bk		i ta baara ka ɲi i ma wa?														phrase
-25715223912	est-ce que...	bk		...wa		A ka ɲi wa?												essentiel question l11
-7455322472	et	bk		...ni...				...ani...										essentiel
1536486975202	et la nuit	abu bouaké		su farala di				su temena di	sp									
27946172151	éternuer	yq		tiso														santé
-53545395750	étoile	yq		lolo														essentiel
-44437573903	étranger	bk		lonacɛ				lonan	"<img src=""_CIV.png"">  <br>"					dunan	"<img src=""_MLI.png""><br>"			MLI gens
27946172038	être naturel	yq		ka kɛ i yɛrɛ ye														phrase
-18512314835	étudiant	yq		lakoliden				kalanden										gens
-16392853323	étudier profondément	bk		karan ko sɛgɛsɛgɛ														marked v
-55365492608	européen / blanc	bk		tubabu														essentiel
67340019297	exactement			cɔ				jati										essentiel
27946172052	exciser	yq		kɛnɛ-kɛnɛ				kɔrɔ			siginɛgɛ							santé
-5643947273	exemple	wt		ɲɛyirali		différence?		misali	"<img src=""_MLI.png"">"									marked
2477221638	explication			sɛgɛsɛgɛli														
1529657783628	poux													pu	"<img src=""_MLI.png"">"			MLI corp
eca7089e-dc16-4d3e-bdf1-5523895a1622	fâcher / agacer / énerver / irriter	yq	(v.)	dimi				dusubɔ	is this a verb?									marked
1529678551516	faim			kɔngɔ		An kɔngɔ b'a la												essentiel
-55856535168	faire			kɛ		Kunu, a ka kɛ												v vt
26568426171	fais le venir.	bk		taga a la na.														bouake phrase
-49188696477	famille	yq		denbaya														gens
-55362297432	famille étendue	bk		somogow														essentiel
-48185883126	fatiguer	bk	(v.)	sɛgɛ			I kana i yɛrɛ sɛgɛ,											v vi
-53016087839	faut  diminuer (enlever)	bk		dɔ bɔ a la														phrase
1529143433513	faux / mensonge / calomnie	yq		faniɲan	"<img src=""_CIV.png"">"			ngalon	"<img src=""_BFA.png"">"		wuya	"Bouaké <img src=""_CIV.png"">"						marked
27946171938	fécondité	yq		bangeli														santé
-55856535119	femme	kodi		muso														essentiel
-19139632939	fer		(n.)	nɛgɛ														essentiel
27946171969	fermer / enfermer / couvrir	yq		tugu				datugu										v
28368362045	fesse	alasane		bobara										jùkuna / jùmugu	"<img src=""_MLI.png"">"			corp MLI
27946172137	feu	yq	(n.)	tasuma				ta	"<img src=""_CIV.png""><br>"									
-16300653533	feuille	bk		flaburu														
-54126282469	février	yq		feburukalo		mois du froid		feburu			foonɛnɛkalo							calendrier
27946172095	fiancer	yq		maminɛ														gens marked
-49188671553	fidèle	bk		kantigiman				kantigi										
-15868363272	fidélité / intégrité	bk		kantigiya														
-18434267659	fièvre	yq		farigwan				farigan										santé
-55362297431	fille	yq		sunguru				denmuso										gens
410971251534	fin			laban														
e91ab08f-b61d-4065-9a91-bedbee7e8ffe	finir / décéder	yq	(v.)	ban														v vt
eace7b14-a8a0-4389-9f9d-d38750ebab6a	fleuve	yq	(n.)	ba		Baji		baji										
27206395649	foi			limaniya				lanaya										
28382876281	foie	yq		biɲɛ										biyɛn	"<img src=""_MLI.png"">"			MLI corp
1529143433489	folie	yq		fatɔya				hakilitanya										
-7662480041	force / puissance	bk		fanga														
1529143433484	fort, puissant	yq	(adj.)??	fangaman		exemple												marked
27946171997	fou	yq	(n.)	fatɔ														gens
-7539952918	fourchette ou écumoire	bk		kuru sɔgɔsɔgɔ														
10327043748	fourmi			dugumɛnɛ				mɛnɛmɛnɛ										animal
27768736657	fourmi ailée	yq		dugumɛnɛ siman														animal
-53805499233	français	yq		faransika				faransikan										essentiel
1529703600711	frapper	kodi		bugɔ														essentiel v
-18162625383	frère	bk		balimancɛ														essentiel gens
4947716332	frère (même mère)	bk		badencɛ														gens
27946171983	frère / demi-frère	yq		faden														gens
-52136922846	frire	bk		yiran														v
1529657783612	front													ten / fɔn	"<img src=""_MLI.png"">"			MLI corp
-19139454040	fruit	bk		yiriden														
1527946171945	fuir / echapper / courir / conduire	kodi	(v.)	bori		n bolila		boli										essentiel vi
1529703600703	fusil	kodi		marfa														essentiel
28382876282	galette	ebt		farin	"<img src=""_CIV.png"">"			ɲɔmi	"<img src=""_BFA.png"">"									marked nourriture
-55856535163	garçon / fils	bk		dencɛ														essentiel gens
-44439246043	gater	bk		can														marked v vt
-55856535171	gauche	bk		bolo jugu	"<img src=""_CIV.png"">"									numan bolo	"<img src=""_MLI.png"">"			MLI essentiel
27809169054	genou	yq		kunbiri kun				kunbiri						kunbere	"<img src=""_MLI.png"">"			MLI corp
1529599765470	gens de la maison	jl 12		somɔgɔw			n bɛ i ya somogow bɛɛ fo											
27946172089	gérant d'hôtel	yq		lotɛlitigi														gens
-19139440581	gingembre	bk		ɲamaku														nourriture
-55856535178	grand	bk	(adj.)	ba		Sanji ba												essentiel
40284254243	grand / gros		(adj.)	bon		Ala ka bon / Musa dɔgɔcɛ ka bon ni n ye												
-55856535158	grand / hauteur	bk		janya														
-3850035477	grand frère	yq		kɔrɔ cɛ														gens
27946172094	grand-mère			mamamuso														gens
-55856535114	grande pluie	bk		sanjiba														essentiel
-3849997403	grande soeur	yq		kɔrɔ muso														gens
27946172013	gratuit			gwansan														essentiel
27768736677	grenouille	yq		tɔri sen jan	"<img src=""_CIV.png"">"			tɔri	"<img src=""_BFA.png"">"					ntɔri	"<img src=""_MLI.png"">"			MLI animal
2476995342	griot	bk		jeli														
-55856535173	gros	kodi		belebele														essentiel
28370590572	gros coeur (qui se fâche facilement)	alasane		dusuba		need example												alasane
-7792030022	gros orteil	bk		sen kumande ba														corp
27768736655	guêpe	yq		dondoli														animal
1535878027723	guider			ɲɛminɛ														
3827656569	habituer / étudier			degi		N be degila		dege										marked
27809169047	haleine / respiration	yq		dakasa				dafiɲɛ	wt									corp
1529657783613	hanche			tɔgɔ	"<img src=""_MLI.png"">"			gerɛn										corp marked MLI
-18161892064	haricot	yq		sɔsɔ														nourriture
1529143433506	hebdomadaire	yq		logokun o logokun														calendrier
-16300696439	herbe	yq		biŋ				bin					43725					animal
28366622927	heure	yq		lɛri														calendrier
-55856535147	bonheur			dagamunin														essentiel marked
-53873571460	hier	yq		kunu														calendrier essentiel
68383402573	hier, j’ai acheté des chaussures.			kunu n ka samara san.														phrase
3670506647	hippopotame	bk	(n.)	meeri	"<img src=""_CIV.png"">"									mali	"<img src=""_MLI.png"">"			animal MLI
1529143433525	histoire	yq		tariku				maana										
27946171957	homme / mâle / mari			cɛɛ														essentiel gens
-55856535120	homme / personne	bk		mɔgɔ														essentiel
-3743945078	homme orgeuilleux			kuncɛba														
-17233337994	homme riche	bk		nafolotigi				wari tigi										gens
27946172018	honnêteté	yq	(n.)	hɔɔrɔnya														
27946171952	honneur / respect / aspect	yq	(n.)	bonya														
28382876283	huile	ebt		tulu														nourriture
-4123054025	humble	yq		majiginin				majigilen										marked
-3743863285	humilier	bk		maroya		Est-ce un nom ou verbe?												bouake marked v
27809169043	humilité / modestie	yq		majigilenya														
27946172116	hygiène / propreté	yq		saniya														santé
1529703600717	ici	kodi		yan		A nan na yan.												essentiel
67259722212	idole / fétiche		(n.)	boli		Boli sɔn												
-53277835100	igname	yq		ku														nourriture
-53015409422	igname bouillie	bk		ku beleke														nourriture
-1161905542	igname braisé	bk		ku jeni														nourriture
4363400863	il a acheté du poisson et du piment.	bk		a ka jɛgɛ ni foronto san.														phrase
4363400866	il a commencé à avoir de la fièvre, euh, avant-hier matin.	bk		farigwan k'a minɛ, ayiwa, kuna sini sɔgɔma.														phrase
1529143433496	il a demandé à boire			a ka minji deli														
1530877568081	il a eu peur			a jatigɛla				a sirana										phrase
-47881810910	il elle lui	bk		a / ale	"<img src=""_CIV.png"">"			a / ale	"<img src=""_BFA.png"">"					a / ale	"<img src=""_MLI.png"">"			MLI essentiel pp
4363400871	il est au travail.	bk		a be baara la.														phrase
3748239431	il est dit que...	bk		a fɔra ko...														phrase
4363400892	il est en vie.	bk		a be balo la.														phrase
-8439635054	il est grand	bk		a ka jan														phrase
1516095877	il est parti la bas	bk		a tagala yen														phrase essentiel
28299761196	il est venu ici.	bk		a nan na yan.														phrase essentiel
-7878131213	il est venu sur moto.	bk		a nan na moto kan.														phrase
-15267635599	il faut dire	bk		a fɔ ko														phrase
4363400864	il l'a dit à moussa et bakari.	bk		a k'a fɔ musa ni bakari ye.														phrase
4363400858	il ne fait jamais quelque chose de bien.	bk		a tɛ koɲuman kɛ abada.														phrase
4363400878	il ne faut pas accuser son semblable.	bk		jɔn kana baga. i jɔn ɲogɔn ma.														marked phrase proverbe
28382876284	il s'est exclamé que	yq		a kabara k'a fɔ ko														phrase
28382876285	il s'est exclamé:	yq		a kabara ko:														
43139787968	il se souvient			a hakili b'a														
4363400873	il travaille le fer.	bk		a be nɛgɛ baara.														phrase
4363400870	il travaille.	bk		a be baara kɛ.														phrase
1530110576627	tu vas le trouver			i be taga a sɔrɔ														
4363400881	il y a deux sortes de joueurs de balafon.   celui qui joue le grand balafon, et celui qui joue le petit.	bk		balafɔla ye sugu fla ye. balabafɔla ani baladeninfɔla.														phrase
-47881654071	ils / eux	bk		o / olugu / olu	"<img src=""_CIV.png"">"			u / ula	"<img src=""_BFA.png"">"					u / olu	"<img src=""_MLI.png"">"			MLI essentiel pp
-8523273944	ils ne sont pas ici	bk		o tɛ yen														marked phrase
-18162548526	ils ont le palu	bk		sumaya be yen o la														phrase
-55856535144	image	bk		jaa														
375552551234	imiter / refléter	jl 17		ladegi				ladege										marked v wt
27946171921	indifférent	yq		a tɛ  mako don														
-12494899734	inquiéter	bk		jɔɔrɔ														v
-55856535139	interdit	yq		kana				dagalen tɛ										essentiel
1529599765579	internet	jl 21		ɛntɛrɛnɛti														
28367778141	intestins	alasane		kɔnɔ nogo										nugu	"<img src=""_MLI.png"">"			MLI alasane corp
1529143433530	invisible	yq		yebali														
-16607061439	j'ai besoin de toi	bk		n'mako b' i la														phrase
-8360950170	j'ai compris.	bk		n ka faamu.														phrase
-8360992248	j'ai compris. / j'ai entendu.	bk		n ka mɛn.														phrase
-5926384811	j'ai un rhume.	bk		mura be n na.														phrase
-6758381958	j'ai une chemise	bk		dereke be ne fɛ														phrase
-7056601206	j'ai une montre	bk		montɔrɔ be ne fɛ														
-6966007741	jai un bic.	bk		biki be ne fɛ.														phrase
-55856535184	à jamais / à toujours	yq		abada														essentiel
1529657783615	jambe / pied			sen / seen														MLI corp
-54126345103	janvier	yq		zanwiyekalo		mois de changement					sanyɛlɛmakalo							calendrier
-7840058159	jaune			nɛrɛ (man)				nɛrɛnu (man)			nɛrɛmugu (man)							couleur
40399670729	je compte sur toi			n jigi b'i kan														phrase
-6713968474	je dis	bk		ne ko														phrase
-17509277263	je dois...	bk		n ka kan ka...														phrase
-47881986758	je moi	bk		n / ne	"<img src=""_CIV.png"">"			n / ne	"<img src=""_BFA.png"">"					n / ne	"<img src=""_MLI.png"">"			essentiel MLI pp
4363400857	je n'ai pas encore vu ta voiture.	bk		i ya mobili, n m'a ye fɔlɔ.														marked phrase
68383345081	je ne sais pas compter jusqu’à dix			n tɛ se ka jatebɔ fɔ ka se tan														phrase
68382716346	je ne suis pas le plus court			n ma surun ni bɛɛ ye														phrase
-8345687794	je ne veux pas te fatiguer	bk		n tɛ fɛ k' i sɛgɛ														phrase
-6714070575	je ne viendrai pas	bk		n tena na														phrase
-17509316697	pouvoir	bk		be se ka...			n be se ka nan dɔɔni											v*
-54218752717	je suis en train de faire quelque chose	bk		n'be fɛɛn dɔ kɛ la														marked phrase
-5926327875	je suis entré dans la maison	bk		n dola bon na.														leech phrase
-7878259120	je suis venu en voiture.	bk		n nan na mobili kɔnɔ.														phrase
-8361038700	je t'ai entendu.	bk		n k'i lamɛn.														phrase
1536516490491	je vais rencontrer quelqu'un	Bouaké		ne ni mɔgɔ dɔ  bena ɲɔgɔn ye														marked
4363400889	je vends de la nourriture.	bk		n be balo feere.														phrase
-27012867677	je veut te montrer quelque chose	bk		n' be fɛ  ka fɛn dɔ yira i la														phrase
68384094188	je veux acheter une voiture mais je n’ai pas d’argent.			n be fɛ ka mobili san nka wari tɛ n bolo.	"<img src=""_MLI.png""><br>"			n be fɛ ka mobili san nka wari tɛ ne fɛ.	"<img src=""_CIV.png""><br>"									phrase
-6713724513	je veux dire que...	bk		ne be fɛ ka fɔ ko...														phrase
4363400854	je vous ai vus.	bk		n k'aw ye.														phrase
27946172030	jeans	yq		jini														emprunt
-52135832225	jeter	yq		firi				fili										l7 v vt
-55000189431	jeudi	yq		alamisalɔn / alamisa	"<img src=""_CIV.png"">"			lamisalɔn	"<img src=""_BFA.png"">"					alamisadɔn / alamisa	"<img src=""_MLI.png"">"			MLI calendrier
28382876286	jeune filles	yq		sunguruw														
-53873672574	jeune homme	bk		kamelen														essentiel
28382876288	jeunes	yq		funankew														marked
-7051617887	joie	yq	(n.)	ninsɔndiya				ɲagali			nagali							v
-55856535179	joli	yq		cɛ ka ɲi														essentiel
1529657783616	joue					What is Ivory Coast word?								kènken / dafuruku	"<img src=""_MLI.png"">"			MLI corp
-51724268609	jouer au ballon	yq		balɔntan														vi
-53873333109	jour			loon / lɔn		An bɛ lɔn do												calendrier
27946172145	jour / soleil	yq		tere	"<img src=""_CIV.png""><br>"									tile	"<img src=""_MLI.png"">&nbsp;<img src=""_BFA.png""><br>"			essentiel MLI
27946172161	journaliste	yq		zurunali sɛbɛrikɛla														gens
27946172054	juge	yq		kititigɛla														gens marked
-54126114666	juillet	yq		zuwekalo		mois de l'hivernage		zuwe			samiɲakalo							calendrier
-54126157170	juin	yq		zuɛnkalo		mois de semailles					dannikalo							calendrier
-6714023040	jusqu'à	kodi		fɔɔ		example												essentiel
28382876273	jusqu'aujourd'hui			hali bi														essentiel
-1161731729	juste	yq		tilenin				tilennen										marked
-1161642427	justice  / honnêteté	bk		tileninya														
1529599765431	l'age	jl 10		sanda		example												
1529599765537	l'eau à boire	jl 18		jii minta														
27946172034	l'eau favorise la santé			jii be kɛnɛya di														phrase santé
4363400875	l'eau n'est pas très fraiche. ça ne fait rien, donne m'en.	bk		ji ma glasi kosobɛ. baasi tɛ. dɔ di n ma.														phrase
4363400877	l'essence est fini.  c'est grave.	bk		taji bana. o kɛra baasi ye.														phrase
28371300085	l'homme a une jambe	alasane		cɛ sen kele nin														alasane corp
1538655602	l'homme lui-même	bk		mɔgɔ yɛrɛ														gens
4363400859	l'homme n'est rien.	bk		adamaden kɔni tɛ foyi ye.														phrase
68383210135	l’ami de son petit frère est élève			a dɔgɔcɛ tericɛ ye lakɔliden ye														
1529703600702	la / la-bas	kodi		yen		A tagala yen												essentiel
1530780907553	la critique ne tue pas	taxi		fɔ tɛ mɔgɔ ban														proverbe
-7878496085	la matinée est arrivée; il n'y a rien de mal	bk		dugu gwɛ la; foyi tɛ														phrase
1529599765462	plage	jl 12		kɔgɔjida				plagi										
-1159348157	la semaine passée	bk		lɔgokun tɛmɛni														calendrier
1529599765589	la venue	jl 22		nali														marked
-31737738050	la-bas	bk		yan fɛ ye														marked
-53545395748	lait	yq		nɔnɔ														nourriture
-19139389977	lait caillé	bk		nɔnɔ kumu														nourriture
28368284086	langue (corps)	alasane		nɛɛn				nɛɛnkun										corp
1529143433497	langue (parlée) / voix	yq		kaan		need example												
27946172152	langue des signes	yq		tulogwɛlɛnw ka kumacogo														
-53958647737	lapin	bk		sozani														animal
-54218555366	laquelle préfères-tu?	bk		i be juman lo fɛ?														phrase
-54218752720	laquelle?	bk		jumɛn		Lɔn jumɛn?		juman										question l11
27946172109	larme	yq		ɲaji	"<img src=""_CIV.png""><br>"			ɲɛji	"<img src=""_BFA.png""><br>"					ɲɛji	"<img src=""_MLI.png""><br>"			MLI corp
-52656018470	lavage	bk		koli														
-52656018471	laver	yq	(v.)	ko		A kola kunu												marked v
68384036972	laves-toi les mains avant de manger.			i be i tɛgɛ ko kasɔrɔ ka domuni kɛ.														phrase
4363400884	le cafe est trop chaud.	emmanuel		café gwana kojugu.	<img src='_CIV.png'/>			café gwana balibali.										marked phrase
4363400880	le cheval est un animal.	bk		soo ye bɛgan ye.	"<img src=""_CIV.png""> Bouaké"													phrase
68382680537	le frère de moussa est plus gros que moi			musa dɔgɔcɛ ka bon ni n ye														phrase
-6758788631	le mal guéri le mal	bk		dimi lebɛ dimi sa														phrase
68383189256	le professeur de madou s'appelle karim			madu ya lakɔlifa tɔgɔ ye karim														phrase
4363400879	le poison tue l'homme.	bk		baga be adamaden faga.														phrase
-19338985231	le prix est cher	bk		a sɔngɔ ka ca														phrase
-15267346936	le prix n'est pas cher	bk		a sɔngɔ ma ca														phrase
68383566545	le professeur a acheté une voiture.			lakɔlifa ka mobili san.														phrase
15291434335074	le week-end	yq		lɔgɔkun laban na														
27946172074	lèpre	yq		kunatɔ				kuna			kunatɔbana							santé
4363400887	les parents de fanta sont venus nombreux pour son mariage.	bk		fanta balimaw nana ka caya a furuko kosɔn.														phrase
28368192363	levres	alasane		dagwolo										dawolo	"<img src=""_MLI.png"">"			MLI alasane corp
27946171961	limite / fin / extrémité	yq		daan			A ka misɛn	danyɔrɔ			dan na							marked
27946171962	limiter	yq		daan bɔ														v
-55856535102	lion	yq		jara / jaraba	"<img src=""_CIV.png"">"									waraba	"<img src=""_MLI.png"">"			MLI animal
27768736661	lionceau	yq		jaraden	"<img src=""_CIV.png"">"									waraden	"<img src=""_MLI.png"">"			MLI animal
27946172051	livre	yq		gafe														v
1529143433518	loi	yq		sariya														
1529143433531	loin	yq		yɔrɔ ka jan														
-17234126057	longue vie et santé	bk		si ni kɛnɛya														phrase
-7539868355	louche	bk		kuru ba														
-27502629559	louer	bk		tando														v
27768736663	loup	yq		kongo wulu										lu	"<img src=""_MLI.png"">"			MLI animal
17834855115	lourd	yq		gwili														essentiel
-55000189430	lundi	bk		tɛnɛnlɔn / tɛnɛn	"<img src=""_CIV.png"">"			tɛnɛnlɔn	"<img src=""_BFA.png"">"					ntɛnɛndɔn / ntɛnɛn	"<img src=""_MLI.png"">"			MLI calendrier
27206246061	lutter			kɛlɛ	"<img src=""_CIV.png"">"			bondori	"<img src=""_BFA.png"">"									marked
68383581521	ma femme a eu du travail.			n muso ka baara sɔrɔ.														phrase
-25714963738	machette	bk		bese														essentiel
28368987505	machoire	alasane		dagwana										dakolo / dagɛlɛkɛ	"<img src=""_MLI.png"">"			MLI alasane corp marked
68383536529	madou a porté une chemise.			madu ka dereke do.														phrase
-54126187129	mai	yq		mɛkalo		mois du début de pluies					samiɲadonkalo							calendrier
27946172127	maintenant / tout de suite	yq		sisan				sisan sisan										essentiel
22159414639	mais	yd		nka				nga										essentiel l12
-52139281000	maïs	yq		kaba														nourriture
-53958647735	maison / bâtiment / chambre	bk		so				bon (n.)			lu	"<img src=""_CIV.png"">"						essentiel
1527946172032	mal / douleur	yq	(n.)	dimi														corp essentiel
-18434296505	mal de tête	bk		kun dimi		N kun Kolo be dimi.												corp
-17509100479	maladie	yq		bana														santé
27946171934	maladie contagieuse	yq		banayɛlɛmata														santé
1529143433528	malheur / peine / souffrance	yq		tɔɔrɔ														
27946172092	maman	yq		mama														gens
40379018800	manger			domu		Kunu, n ka jɛgɛ domu. / N ka domuni kɛ.		domuni kɛ										vt l7
1535205454371	mangouste	rc		wata juba														animal
-53015823452	mangue	bk		mangoro														nourriture
1527665647867	manière	yq		cogoya		A ka cogo sɔrɔ		cogo			kɛcogo			wale	jl 11			
27946172003	manquer	yq		fɔn		Kana fɔn o la							<div><br></div>				miss	marked v
-53873715604	marché	yq		lɔgɔ				lɔgɔfiyɛ						sugu	"<img src=""_MLI.png"">"			MLI essentiel
-18161840020	marché africain	bk		farafin lɔgɔ														
-5481833799	marcher	yq		taagama	"<img src=""_CIV.png"">"			taama										v
-55000189429	mardi	bk		taratalɔn / tarata	"<img src=""_CIV.png"">"			talatalɔn	"<img src=""_BFA.png"">"					taratadɔn / tarata	"<img src=""_MLI.png"">"			MLI calendrier
27946172064	mariée	yq		kɔɲɔmuso														gens
-55856535150	marier	bk		furu		A ma furu / A furula												v vi
27946172009	mariés / conjoint	yq		furuɲɔgɔnman														gens
37787611568	marmite en fer			nɛgɛdaga														
-54126250680	mars	yq		marisikalo		mois de chaleur					funtenikalo							calendrier
-53807343565	matin	bk		sɔgɔma														calendrier essentiel
-55856535143	mauvais	bk		jugu														essentiel
27946172004	médicament	yq	(n.)	fila	"<img src=""_CIV.png"">"									fura	"<img src=""_MLI.png"">"			MLI santé
27946172006	meilleurs soins	yq		furakɛcogo fisamanw														santé
-4431224777	même	kodi		yɛrɛ			I yɛrɛ ɲininga ko											essentiel
-55856535165	mendier / demander	bk		deli	"<img src=""_CIV.png""> Odienné"	A b'a fɛ k'i dari		dari	"<img src=""_CIV.png""> Bouaké"									marked v
27946172044	méningite	yq		kanjabana														santé
1530781321340	menteur			faniɲantigɛla	<img src='_CIV.png'/>Bouaké			ngalontigɛla	<img src='_BFA.png'/>									gens
1529657783620	menton			bonbon kun										bonbon	"<img src=""_MLI.png"">"			MLI corp
78cce866-b1cb-4fe8-a7d0-6f1c953ff018	mer / océan			kɔgɔji														
-55856535183	merci / diminuer	bk		barika														essentiel
-55000189428	mercredi	bk		arabalɔn / araba	"<img src=""_CIV.png"">"			arabalɔn	"<img src=""_BFA.png"">"					arabadɔn / araba	"<img src=""_MLI.png"">"			MLI calendrier
-53958647745	mère	bk		bamuso														essentiel gens
1529703600710	mettre	kodi	(v)	bla														essentiel marked v
27946171963	mettre fin	yq		daan sigi														v
27946172100	meurtrier	yq	(n)	mɔgɔ fagala				fagalikɛla										gens
27946171933	microbe	yq		banakisɛ														santé
-7651829509	miel	yq		li														nourriture
-53545395747	mil	yq		ɲɔ				ɲɔɔ										nourriture
27946172096	million	yq		miliyɔn														chiffre
68382880434	je m'apelle diarra			n tɔgɔ ye diarra				n tɔgɔ be diarra			n tɔgɔ ko diarra							phrase
-53873557747	mois	yq		kalo														calendrier
-18162663818	monnaie			wari misɛn														essentiel
-51725530041	montre	bk		mɔntɔrɔ														
-45246239492	montrer	yq		yira		Yira mɔgɔ la												v
1529703600713	mosqué	kodi		misiri														essentiel
27946172072	mots	yq		kumadenw				daɲɛw										
27768736666	mouche	yq		limɔgɔ														animal
-55856535111	mourir	bk		saya		Wulu sala												v vi
4363400856	moussa a frappé son petit frère.	bk		musa k'a dɔgɔcɛ bugɔ.														phrase
68383249877	moussa est le fils de madou			musa ye madu dencɛ ye														
28369148070	moustache	alasane		nun sii	"<img src=""_CIV.png"">"									dalasi / nukɔrɔsi	"<img src=""_MLI.png"">"			MLI corp
27768736675	moustique	yq		soso														animal
-55856535116	mouton / brebis	bk		saga														animal
-3849934239	musa n'est pas allé à korhogo	bk		musa ma ta korhogo														phrase
1529657783621	muscle			fasa														corp
1529143433480	museau	yq		dakala														corp
27946171975	musicien	yq		dɔnkilidala														gens
4363400883	n'avoir pas mangé et n'avoir pas dormi ne sont pas bon.	bk		domunikɛbaliya ni sunɔgɔbaliya, o man ɲi.														phrase
-16300620645	n'importe quoi	bk		fɛɛn bɛɛ														essentiel
27946171935	naître / enfanter			bange		I wolola min?		wolo										santé
1529657783622	narine			nuwo				nudinga						nuwo / nufile	"<img src=""_MLI.png"">"			corp MLI
1529678551520	natte	yq		dɛbɛ														essentiel
-54218752718	ne me regarde pas	bk		kana n filɛ														phrase
4363400862	ne nous frappe pas.	bk		kana an bugɔ.														phrase
1529657783623	nerf			fasa juru										fàsàjuru / fàsàsira / sɔmìnan	"<img src=""_MLI.png"">"			MLI corp
-9126606725	neuf / nouveau	yq		kura														essentiel
27946171939	neveu	yq		dɔgɔnin dencɛ														gens leech marked
-7791876226	nez	yq	(n.)	nu														corp
-8088212970	noir	yq		finman		phrase avez couleur												couleur
1529703600716	nom	kodi		tɔgɔ														essentiel l1
-17508277250	nombreux	yq		cayala				(ka) ca										
28367944447	nombril	alasane		bara kun	"<img src=""_CIV.png"">"			kɔnɔbara										corp
-25715063327	non	bk		ɔn ɔn				ayi										essentiel question
27946172056	nord	yq		kɔgɔdugu yan fan fɛ														
25810073427	nourrir / vivre / élever	bk	(v.)	balo		A be balo la												v vi
-47881764516	nous	bk		an / anugu / anu	"<img src=""_CIV.png"">"			an / anw	"<img src=""_BFA.png"">"					an / anw	"<img src=""_MLI.png"">"			MLI essentiel pp
27946171924	nous en avons besoin pour...	yq		an mako b'a la ka...														marked
28364392934	nous sommes dans la main de dieu.	alasane		an be ala bla la.														phrase
4363400886	nous sommes parents.	bk		anw be balimaw ye.														phrase
-18162100858	nouvelles	bk		kibaro														
-54293052445	novembre	yq		novanburukalo		mois de récoltes		novanburu			sumanladonkalo							calendrier
1529143433488	nu	kamagate		farilakolon	<img src='_CIV.png'/>			fanita kan										corp
1529703600705	nuit	kodi		su														essentiel
27809169053	nuque	yq		kaankala										tɔn	"<img src=""_MLI.png"">"			MLI corp
-55856535122	obéir / eduquer / discipliner	bk	(v.)	kolo	"<img src=""_CIV.png"">"	A ma kolo dɛ !		kanminɛ	"<img src=""_BFA.png"">"		kaan minɛni kɛ	"<img src=""_BFA.png"">"		a ma lamɔ	cdi			marked v
-48185883140	obtenir / trouver / gagner	bk		sɔrɔ														v
-54293290889	octobre	yq		ɔkutɔburukalo		mois de la fin d'hivernage		ɔkutɔburu			samiɲalabankalo							calendrier
27205737326	oeil			ɲakili	"<img src=""_CIV.png"">"			ɲakise	"<img src=""_BFA.png"">"					ɲɛ	"<img src=""_MLI.png"">"			MLI corp
-55856535153	oeuf	yq		fan														essentiel
-51724231588	oignon	yq		jaba														nourriture
-16300439867	oiseau	yq		kɔnɔnin				kɔnɔn										animal
68383905287	on doit respecter ses parents			mɔgɔ ka kan ka a bangebagaw bonya														phrase
-7878568457	on est ensemble.	bk		an be ɲɔgɔn fɛ.				an be ɲɔgɔn bolo.	Odienne									phrase
-15267674977	on peut vous satisfaire	bk		o ka nɔgɔ														phrase
27946171940	oncle maternelle	yq		belencɛ														gens
-53805657835	oncle maternel			benicɛ / belencɛ														gens
28365516628	ongle	alasane		bolo sɔɔni										sɔni / sɔnìfara	"<img src=""_MLI.png"">"			MLI corp
1529143433517	or	yq		sanu														
39805608170	orange			lenburu														nourriture
1529599765600	ordinateur	jl 23		ɔrdinatɛriw														
-52136264022	ordures	bk		ɲaman														essentiel
-53958647738	oreille	yq		toro				tulo										corp
-1171839580	orgeuil	yq		kuncɛbaya														
27946171986	orphelin	kamagate		feretani	"<img src=""_CIV.png""><div>Bouaké</div>"			falatɔ	"<img src=""_BFA.png"">"									gens
1529657783624	orteil			sen kumande										sɛnkɔni	"<img src=""_MLI.png"">"			MLI corp
1529657783625	os		(n.)	kolo														corp MLI
27206573736	ou bien	bk		wala	"<img src=""_CIV.png"">"			walama	"<img src=""_BFA.png"">"		walima							
4363400855	ou est awa? elle est dans la maison.	bk		awa be min? a be bon kɔnɔ.														phrase
30113742890	oublier			ɲinɛ			A ɲinɛna an kɔ	ɲini		n tun nyinan na o kɔ								
27946172146	ouest	yq		tileben														
-25715138543	oui	yq		ɔnhɔn														essentiel question
-17945360773	page	yq		sɛbɛ ɲɛɛ														
-52670184466	pagne	yq		fani				tagafe										marked
28382876289	pain	yq		buru														nourriture
-55856535146	paix / bonheur	bk		hɛrɛ (n.)														essentiel
27946172132	palu	yq	(n.)	sumaya		Sumaya be a la												santé
-18434366707	paludisme	bk		sumaya dimi														santé
-53015497479	pamplemouse	bk		lenburuba														nourriture
1529143433479	panetier	yq		buru dilanbaga				buru kera tigi										gens
27946171982	papa	yq		baba														gens
-53015567472	papaye	bk		papaye														nourriture
3755666635	papillon	bk		firinfirin														animal
-54218752728	paragraphe	yq		dakun														
-54727546144	parce que			sabu		Siriki tεna taga baarakɛyɔrɔ la bi sabu a ma kɛnɛ.		katuguni			bari							essentiel l12
-53182470323	pardon	yq		sabari				hake to										essentiel
4363400876	pardon! de rien!	bk		sabari!  basi tɛ!														phrase
-26807921802	pardonner			yafa	Yafa... ma													v
27946171936	parent	yq		bangebaga														gens
-55856535167	parfait	yq		dafalen			ne tɔgɔ dafanin ye Amidou DIABATE.											leech
68383600492	parle fort			i be i kan labɔ				i kan bɔ	"<img src=""_CIV.png""><div>Bouake</div>"									phrase
-51741127489	parler	bk	(v.)	kuma														v
27946172071	parole	yq	(n.)	kuma														essentiel
27946172128	partager	yq	(v)	son				tilan										v
27946172135	partez d'ici			taga ka bɔ yan.														marked phrase
-55856535105	partir / aller	bk	(v.)	taga		A tagala Abidjan		taa										essentiel vi
-18766759486	partout	yq		yɔrɔ bɛɛ														essentiel
-17508233029	pas de maladie est l'ami de l'homme.	bk		banan tɛ mɔgɔ teri ye.														phrase
-44178557456	passer / dépasser	bk		tɛmɛ			Kana tɛmɛ miniti 3 kan											v
1529678551511	passion	yq		jarabi														
-53015680904	patate	bk		woso														nourriture
-53015256195	patate grillé	bk		woso yirani														nourriture
-53015739901	pâte d'arachide	bk		tiga dɛgɛ														nourriture
27946172112	patron	yq		patɔrɔn														gens
27809169061	paume	yq		tɛgɛ	"<img src=""_BFA.png"">"									tigɛ	"<img src=""_MLI.png"">"			MLI corp
28366354150	paupière	alasane		ɲa fara										ɲɛfara / ɲɛwolo	"<img src=""_MLI.png"">"			MLI alasane corp
1529143433503	pause / repos / sièste	yq		lafiyɛn		Lafiyɛn wagati la, an bɛ domuni kɛ ɲɔgɔn fɛ.												marked
-17233297689	pauvre			fangan tan	"<img src=""_CIV.png"">"	Cɛ nin fangan tan lo.	fangan t'a la	faniɲa / fantan	"<img src=""_BFA.png"">"									gens marked
27946171981	what is this			farakulu / farakolo														marked
6102892193	pauvreté	yq		fantanya														
27946172121	payer	yq	(v.)	sara														v
-53807248070	pays	yq		jamana			faransi jamana			jamana kuntigi								
-55362297427	paysan	bk		sɛnɛkɛla														essentiel
1529143433485	peau	yq	(n.)	fara				farikolo						wolo	"<img src=""_MLI.png"">"			corp MLI
-55856535141	pécher	bk		jurumu														v
68383551473	penda a salué son ami.			penda k'a tericɛ fo.														phrase
27809169050	pénis	yq alasane		fɔrɔ				wulu			sogoni							corp
1529678551517	pensée	yq		miriya														
1529143433502	pensée		(n.)	mirili				miriya										
-53545395751	penser	yq		miiri				bisigi										marked vi
1529191270204	pensez-y	wt		miiri ka filɛ														
-18766567636	perdre	bk		tunu														leech v
-55362297438	père	yq		facɛ				faa										gens
27946171995	perfusion	yq		farilajidon														santé
27946172113	permis (de conduire)	yq		pɛrɛmi														
279461720004	peste	yq		finyɛbana				bana yɛlɛmata										marked santé
1529703600708	petit	kodi		misɛn				fitini										essentiel
-7792055372	petit doigt	bk		bolo kumande fitini														corp
-25714836626	petit enfant	yq		denmisɛn				denmisɛnin										essentiel
-3849977637	petit frère	bk		dɔgɔcɛ	"<img src=""_CIV.png""><br>"	a dɔgɔcɛ tericɛ ye lakɔliden ye												essentiel gens
-52656018475	petit garçon	bk		cɛdennin														gens leech
27946172093	petit-fils	yq		mamaden														gens
-55362297434	petit-frère	bk		dogocɛ														essentiel
-3849952656	petite soeur	bk		dɔgɔmuso														essentiel gens
1529703600704	peu	kodi		dɔɔni		Dɔɔni be a kɔrɔ												essentiel l1
27946171953	peuple / descendance	yq		bɔnsɔn				kɔmɔgɔw										gens
27946172126	peur	yq	(n.)	siranya														
3747847407	avoir peur	yq		siran							jatigɛ						startled	v
-4633571900	peut-être	yq		n'a sɔrɔ														essentiel marked
27946171991	pharmacien	yq		faramasiɲɛ														emprunt gens
27946172073	phrase	yq		kumasen														
-53015204863	piment	bk		foronto														nourriture
28368659410	piqure	alasane		kuru														
-55856535129	pirogue	bk		kurun														essentiel
27946171950	plaie	yq		bonɛ														santé
27946172111	plaindre (se)	yq		ɲuna														marked v
1535119308748	plainte	rc		ɲunuɲunu														
27946171973	plaire	yq		diya		diya mɔgɔ ye												marked v
-7791903746	plante de pied	bk		sen tɛgɛ														corp
27946172049	pleurer	yq		kasi														v
-55856535115	pluie / année	kodi		sanji														essentiel
1529657783627	poignet			bolokan										bolonɛgɛladonyɔrɔ	"<img src=""NKo_Ny.svg"">"			corp
27809169060	poil	yq		sii										sin	"<img src=""_MLI.png"">"			MLI corp
27809169044	poing	yq		bolokuru										bolokurun	"<img src=""_MLI.png"">"			MLI corp
-52136836214	poisson	yq		jɛgɛ	"<img src=""_CIV.png"">"	Jɛgɛ ma di ni sogo ye wa?		jigɛ	"<img src=""_BFA.png"">"									animal nourriture
-8521542029	poisson fumé	bk		jɛgɛ usu														nourriture
28367076607	poitrine	alasane		disi				disikolo						disi / kɔgɔ	"<img src=""_MLI.png"">"			MLI corp
28366846362	pomme d'adam	alasane		kaan file file														alasane corp
-15924466213	porte / bouche	bk		da		I ye da tugu !		koon										corp essentiel
-7792085208	pouce	bk		bolo kumande ba										bolonkɔnikunba	"<img src=""_MLI.png"">"			MLI corp
27768736672	poulet	yq		sisɛ	"<img src=""_CIV.png"">"			sɛsɛ	"<img src=""_BFA.png"">"									animal
22159427790	pour cela	yd		o kosɔn		Amidu jogo ma nyi, o kosɔn teri tɛ a fɛ.		ola										essentiel l12
26986729853	pour sa part / quant à	kodi		kɔni														l3
27207485786	pourquoi ?	bk		muna?				mun kosɔn?										question l11
-54727515367	pousser  / motiver	bk		lasun														v
1529678551518	poussière	bk		pusiyeri				buguri										
-16607231724	prendre / choisir	bk	(v.)	ta		A ka min ta. N ta lo.												v
27946172059	prendre garde / prêter attention	yq		kɔrɔsi		ka dusubɔ kɔrɔsi		kɔlɔsi										v
-10943763535	prendre soin / faire attention			janto		I janto kɔnɔn nin na												v
-53241239980	préparer	bk		tobi														v
25096152763	prier / demander	kodi		seri / seli														marked v
1529143433519	principe	yq		sariyakolo														marked wt
-48185883128	prix	yq	(n.)	sɔngɔ	diff?	Bara ka den sara ka caya		sara			sɔngɔn							essentiel marked
27946172101	prochain (personne)	yq		mɔgɔɲɔgɔn														gens
-18512251732	prochain / à venir	yq		nata														essentiel
-53872831278	professeur	bk		lakɔlifa														essentiel
-15267201502	profit / bénéfice / important			nafa		Nafa ka bon		tɔnɔn		I ka tɔnɔn sɔrɔ̵								marked
-3582266273	promesse	yq		layiri				layidu			dajuru							marked
27946172143	propriétaire	yq		tigi														gens
38912413143	protégeṛ̱	wt 1810		tanga		Ala ye i tanga		... ka tanga... ma	jl 15									l11
3b7839e0-090d-4ddd-8173-0774e783aa97	protéger / couvrir / soutenir	yq		sutara		Ala ye i sutara												
27946172058	puit	yq		kɔlɔn														
-4123020142	punir			ɲangi	"<img src=""_BFA.png"">"													unbouake v wt
28366446248	pupille	alasane		ɲakiseden														alasane corp
1528816741117	python	kamagate		mininyan ba				mininyan suruni										animal
-54218752721	qu'est que c'est?	bk		nin ye mun lo ye?				mun lo?										phrase question
-17509603056	qu'est-ce que tu as dit?	bk		i ka mu fɔ?				i ka mu lo fɔ?										phrase question
4363400882	qu'est-ce qui t'a empêché de venir ?	bk		mun k'i bali ka na?														phrase
68382926572	qu’es-tu venue faire à abidjan ?			i nan na mun kɛ abidjan ?														phrase
1527946172154	chaque fois	kamagate		tuma kelen kelen														essentiel
-7788796832	que chacun se reveil le matin	bk		ala y'an kelen kelen wuli														phrase
6098503772	que dieu accept salutations	bk		ala ye duga amina														marked
-18161991914	que dieu ait pitié de lui!	bk		ala ye hine a la														phrase
-17234019882	que dieu diminue les soucis	bk		ala ye haminan koo nɔgɔya														phrase
-17233891349	que dieu fasse que les enfants grandissent	bk		ala ye denmisɛnw balo														phrase
4363400890	que dieu prete vie à cet enfant!	bk		ala ye den balo.														phrase
-5462122209	que dieu te benisse	bk		ala ye i duga				ala i baraji										phrase
27206473406	quelle heure / quand	bk		tuma jumɛn	"<img src=""_CIV.png"">"			wagati juman	"<img src=""_BFA.png"">"									calendrier l11 question
6681786393	quelqu'un honnête	bk		kankelentigi														marked
68479908582	quelques			damanin		Saan damanin o kɔ												
6107549852	quelques années plus tard...	bk		saan damanin o kɔ...														phrase
30111789607	quelques rares fois	kamagate		tuma dama dama														
-54217186342	question	yq		ɲiningali					jl									essentiel question
-44647367870	questionner	yq		ɲiniga	"<img src=""_CIV.png""><br>"	Mɔgɔ ɲinigan fɛn na / Fɛn ɲini mɔgɔ fɛ		ɲiningan										v
-53958647736	queue			kokala		Wula ka jɛgɛ ku domu.		ku			kukala							corp
-48186082422	qui	yd		jɔn		I tun ka jɔn wele kunu?		jɔnni										question l11
-25715160808	quoi	bk		mun		Lɔgɔkun timinin, Ali tun ka mun san lɔgɔfɛ la?												question l11
27946172091	rabaisser	yq		mafiɲɛya														v
27946172082	raconter / relater	yq		lakali														v
1529599765409	radio	jl 9		arajo														
27946172040	ralentir		(v.)	sumaya														v
27946171955	ramasser / rassembler	yq	(v.)	cɛ				lajɛn										marked v
64913486659	rapellez vous que	rc 2019		a to i hakili la ko														phrase
27946172037	rappeler / souvenir (se)	yq		ka hakili jigi														marked v
-53277853604	rat	bk		toto														animal
408444538694	raté	dico		jɛn		N ka jɛn												marked
27946172103	rebeller (se)		v	... muruti... ma		Muruti mɔgɔ ma												marked v
-5843352880	regarder	yq		filɛ	"<img src=""_CIV.png"">"	N be filɛli kɛ								lajɛ	"<img src=""_MLI.png"">"			marked MLI
1529657783630	rein													kɔmɔkìli	"<img src=""_MLI.png"">"			MLI corp
64914778130	réjouir		(v.)	ninsɔndiya														vi
-52136790920	réparer	yq		lalaga	"<img src=""_CIV.png"">"													essentiel v
-53958647741	repas / nourriture / plat	jl 14	(n.)	domuni	<img src='_CIV.png'/>			fana	<img src='_BFA.png'/>									essentiel marked n
30116592468	repas de midi	kamagate		terela													30116592468	
1530116564391	repas de soir	kamagate		sula		exemple différent de singe											30116564391	
27946172123	répéter			fɔ tugu				segi a kan										essentiel
-52656018474	répondre	yq		jaabi				jaabili kɛ										v
-44647220195	réponse	bk		jabili														essentiel question
1408180573	reposer	bk		nene kiri		N bena nene kiri		lafiɲɛ										marked v
27946172041	résister	yq		ka to kelen kan				lafasa										v
1529143433511	respirer / respiration / respiratoire	yq		nɛnɛkiri				nɛnɛkili										marked santé
1529703600715	rester	kodi	(v.)	to														essentiel v
1538147755443	retour	kodi	(n.)	sekɔ														l3
4897052312	reveiller	bk		lakunu														marked v vt
68319737253	revenir			segi		A segira / Ala y'a ɲuma segi		kɔsegi			sekɔ							vi
-48185883135	réviser	bk		segi a kan														essentiel
1529143433499	rhumatisme	yq		koloci				kolobana										santé
-5926408929	rhume	yq		mura			mura tun be a la											santé
-17234242456	richesse	yq		nanfolo				nafolo										
1529657783631	ride			ɲugu / ɲuguɲugu	"<img src=""_MLI.png"">"													MLI corp
1529866417683	rien ne se fait sans raison	dns		foyi tɛ kɛ ni kun t'a ra		Foyi tɛ kɛ ni kun tɛ a ra												phrase
27946172057	rivière			kɔɔ				baa										geo
-53545395749	riz	yq		malo	"<img src=""_CIV.png"">"									kini	"<img src=""_MLI.png"">"			MLI essentiel
-53958647740	roue	bk		pine														essentiel
-8088147732	rouge	yq		wuleman														couleur
-52064706662	s.v.p.	bk		hakɛ to														essentiel
-12126191650	s'apprêter / préparer	bk		labɛn														v
27946172021	s'assécher / sécher	yq	(v.)	ja		ka kaba ja												v
-44437459979	s'assoir	bk		sigi														v
27946172069	s'écrier / crier	yq		kule				ka kule										v
68382749694	s’il vous plaît, où se trouve le marché ?			hakɛto, lɔgɔfɛ be min ?														phrase
1529143433478	sac	yq		saki				bɔrɔ			sakɔsi							
-55856535110	sacrifier	bk		saraka	v	N ka wari saraka												v vt wt
1529678551507	sagesse	yq		hakilitigiya														
27946172115	sain	yq		saniman														santé
27809169046	salive	yq		daji														corp
-52139354827	saluer	yq		fo														l7 v vt
9184690720	salutation champ	bk		i ni sɛnɛ				i ni kongo										essentiel salutations
9184723890	salutation cuisine	bk		i ni gwa														salutations
9184791617	salutation lessive ou porter l'eau	bk		i ni kɔɔ														essentiel salutations
9184759070	salutation marché	bk		i ni lɔgɔ														essentiel salutations
-55000189426	samedi	yq		samedilɔn / sibirilɔn	"<img src=""_CIV.png"">"			samedilɔn	"<img src=""_BFA.png"">"					sibiridɔn / sibiri	"<img src=""_MLI.png"">"			MLI calendrier
28368107720	sang	alasane		joli (n.)	(n.)									joli / basi	"<img src=""_MLI.png"">"			MLI corp
1529190677480	sans doute	wt		siga t’a la														essentiel
27946172053	santé	yq		kɛnɛya		A be kɛnɛya di												santé
28382876290	sauce	yq		nan	(n.)													nourriture
1529745613153	sauce graine	emmanuel		teɲi nan														
-53545395742	sauter	yq	(v.)	pan				panpan										v
-55856535134	sauver	yq	(v.)	kisi		Kisi fɛn ma (mɔgɔ...)												v
27946172160	sculpteur	yq		yirilɛsɛla														gens
1529599765545	se dépêcher	jl 18	(v.)	teliya														v
1529703600707	se lever / lever	kodi		wuli														essentiel v
-53277754058	se promener	bk	(v.)	yala		N yarala Burkina kɔnɔ		yala yala			munumunu							marked vi
-55856535149	se souvenir / esprit penser	bk		hakili		N hakili t'a la												v
27946172011	secret	yq		gundo														
28367029046	sein	alasane		siin										sin	"<img src=""_MLI.png"">"			MLI corp
28382876291	sel	yq		kɔgɔ														nourriture
27946171944	selles / excréments	yq		bo														corp
b74bf067-2956-4fa7-986c-f2e5e65f127f	selon son dire	yq		a ka fɔta la														marked
95f2352d-13de-4565-8b50-f8428fbc3448	selon lui	yq		a ka miiriya la				alu fɛ										
-53873303585	semaine	yq		lɔgɔkun	"<img src=""_CIV.png"">"									dɔgɔkun	"<img src=""_MLI.png"">"			MLI calendrier
-53241176888	semer	bk		sɛnɛ														v
27946172047	sentir	yq		kasabɔ														marked v
-54126056361	septembre	yq		sɛtanburukalo		mois de mûrissement des céréales		sɛtanburu			sumanmɔkalo							calendrier
-55856535117	serpent	bk		saa														animal
-7878667522	serre-moi la main	bk		i tɛgɛ don n bolo				bolo don n bolo										marked phrase
27946171976	seulement	kodi		dɔrɔn														essentiel
27946171964	sevrage	yq		dabɔli														corp
1529143433498	short	yq	(n.)	kilɔti														
24580780075	si	yq		ni...				mana										essentiel l12
68384172951	si tu creuses un trou tu auras de l’eau.			i mana dinga sogi i bε ji sɔrɔ.														phrase
68384189709	si tu ne veux pas faire la prison, il faut éviter le vol.			n i t’a fε ka kaso kε, i ma kan ka sonyali kε.														phrase
27946172117	siècle	yq		sankɛmɛkulu														calendrier
27768736676	singe	yq		sula														animal
22159392751	sinon	dy		n'o tɛ		Nan jonan n’o tɛ n bɛna taga!				Baara kɛ ka ɲi n’o tɛ n tɛna i sara								essentiel l12
68384052710	siriki n’ira pas au travail aujourd'hui parce qu’il ne se porte pas bien.			siriki tεna taga baarakɛyɔrɔ la bi sabu a ma kɛnɛ.														phrase
-54218752730	soeur	bk		baliman muso				balimamuso										essentiel
27946172098	soif			minlɔgɔ	"<img src=""_CIV.png"">"	Ji minlɔgɔ be na		minnɔgɔ	"<img src=""_BFA.png"">"									
27946172005	soigner	yq	(v.)	fura														santé v
-53807309109	soir	yq		wula														calendrier essentiel
27946172131	soldats	yq		sɔrɔdasiw														gens
1538147693870	son affaire	kodi		taako														l3
28382876293	sorgho	yq		binbiri														nourriture
-16527240875	sorte genre			sifa	<img src='_CIV.png'/>			sugu	<img src='_MLI.png'/>									marked
-44437908548	sortir	bk		bɔ														v
1529599765412	soucis	jl 9		haminankow														
28366286693	sourcis / cil	alasane		ɲa sii				ɲɛ sii						Ɲɛkonkonasi	"<img src=""_MLI.png"">"			MLI alasane corp
-16300500095	souris	bk		ɲinan														animal
27946171971	soutien / aide	yq		dɛmɛli														
1529657783634	squelette													kolojalan	"<img src=""_MLI.png"">"			MLI corp
27946171937	stérilité	yq		bangekɛbaliya														santé
1529678551508	stylo	yq		biki		Biki b'i fɛ wa?		sɛbɛri kɛlan										
1529143433521	sucre	yq		sukaro														nourriture
27946172148	sucrer	yq		timi		Need hint												hint marked v
27946172158	sud	yq		worodugu yan fan fɛ														
1529657783635	sueur			wɔsiji														corp
27946172081	suggestion / conseil / recommandation	yq		ladili														v
-31737613286	sur	kodi		kan														essentiel
1529698322933	tabaski	kodi		seliba														
1529703600700	table	kodi		tabali														essentiel
27946171989	tailleur	yq		fanikaranla														gens
-15925527333	tais-toi !	bk		i da tugu !				i da je !										marked phrase
1529657783636	talon	jm		sen ju	<img src='_CIV.png'/>									sen tontòli	"<img src=""_MLI.png"">"			MLI corp
-53806530587	tante	yq		tenɛmuso														gens
27946172150	tee-shirt	yq		tiriko														
1529599765466	téléphone	jl 12		telefɔni														
-55856535156	terre	yq		dugukolo				bɔgɔ										essentiel
28366095760	testicules	alasane		belekili														alasane corp
-53277784628	tête	yq		kun				kunkolo										corp
27946172017	tiens !	yq		hɔn!														essentiel
-52139218999	tirer	yd		saman														v l7
-55856535125	tomber	yq		ben			Sogo kilo fila bɛ bɛn kɛmɛ segi ma											vi
27946172120	tonnerre	yq		sanpɛrɛ														
1529678551515	tôt le matin	yq		sogoma joona							sogoma da joona fɛ							
1529143433523	totem / interdit	yq		tana		Tana lo												
-27502669907	toujours	yq		tuma bɛɛ														
-55856535174	tout / tous	yq		bɛɛ														essentiel
-6416047111	tous le temps cest pas le meme chez dieu	bk		wagati bɛɛ tɛ kelen ye ala fɛ														phrase
1529496492240	tousser			sɔgɔsɔgɔ														santé
408441172584	toutefois / cependant / malgré tout	wt		o bɛɛ n'a ta				o n'a ta bɛɛ										
1529143433494	traitre	yq		janfancɛ				janfaci										
1529599765547	transmettre / envoyer	jl 18		lase		Lase ... a ma												
27946171928	travail / tâche	yq	(n.)	baara														essentiel
1529599765512	travail manuel	jl 16		bolo baara														
68384116357	travaille bien sinon je ne te payerai pas.			baara kε ka ɲi n’o tε n tεna i sara														phrase l12
1527946171929	travailler	yq	(v.)	baara														v
4363400874	travailleur	yq		baarakɛla														
27946171999	trébucher	yq		fili														v
-55856535131	très	bk		kosɔbɛ														essentiel
27946172157	trier	yd		woroman														vt l7
-55856535127	tromper	yq	(v.)	nɛgɛ				lafili										v
1529143433512	trouble respiratoire	yq		nɛnɛkiri bana														santé
-47881877351	tu / toi	bk		i / ile	"<img src=""_CIV.png"">"			e / ele	"<img src=""_BFA.png"">"					I / E	"<img src=""_MLI.png"">"			MLI essentiel pp
-6415305877	tu dis quoi ?	bk		ile ko di ?														phrase
27946172129	tuberculose	yq		sɔgɔsɔgɔgwɛ														santé
-55856535155	tuer / abattre / éteindre	bk		faga		N ya wulu ka sise faga												v vt
27946171985	comportement			jogo		Amidu jogo ma ɲi, o kosɔn teri tɛ a fɛ.												
28382876292	un / seul	bk		kelen														essentiel
1528524001	un doigt ne peut pas lever un cailloux.	bk		bolokumande kelen tɛ se ka bɛrɛ ta.				bolokumande kelen tɛ se ka kabakuru ta.	"<img src=""_CIV.png"">"									marked phrase
-8522305713	un jour avant hier	bk		kuna sini kɔfɛ														calendrier
-5841878338	un long chemin	bk		sira ka jan														phrase
40321636200	unité	mwb		kelenya														
27809169058	uriner	yd		ka ɲɛgɛnɛ kɛ														corp
1529703600706	usagé / mauvais	kodi		kojugu														essentiel
27809169048	utérus	yq		denso														corp
27946171947	vaccination	yq		boloci														santé
27946172035	vacciner	yq		ka boloci														santé
27809169056	vache	yq		misi / misi muso														animal
27768736668	veau	yq		misiden														animal
28367971257	veine			joli sira										Jolifìnsira	"<img src=""_MLI.png"">"			MLI corp marked
-19139544883	vélo	yq		nɛgɛso														
-53257444419	vendre	yq		feere														v vt
-55000189427	vendredi	yq		jumalon / juma	"<img src=""_CIV.png"">"			jumanlɔn	"<img src=""_BFA.png"">"					Jumandɔn / Juman	"<img src=""_MLI.png"">"			MLI calendrier
4696293185	venir	yq		na														vi
27946172085	venir (faire)	yq		lana		Ta a lana												v
-15925488548	vent	bk		fɔɲɔ														essentiel
28382876294	ventre / intérieur	yq	(n.)	kɔnɔ		Kɔnɔ bori												corp
27946172138	véritable ami	yq		teri sɔbɛ														gens
-52670184469	vérité	yq		tiɲɛ		Tiɲɛ lo! / Tiɲɛ b'i fɛ												essentiel
27946171987	vers	bk	(n.)	tumu														animal marked
3755525512	vers		(p)	fan fɛ														essentiel
-7840060490	vert	yq		biŋkɛnɛ				binkɛnɛman										couleur leech
28367609785	vesicule bilaire	alasane		kuna kuna														alasane corp marked MLI
27946172104	veuve	yq		muso cɛ salen				firiyamuso										gens
28382876295	viande	yq		sogo														nourriture
-53015645222	viande de boeuf	bk		misisogo														nourriture
-53015596267	viande de mouton	bk		sagasogo														nourriture
-52670184465	vie	yq		niin				ɲɛnamaya										
27946171959	vieillard	yq		cɛkɔrɔnin														gens
27946172068	vieillesse	yq		kɔrɔya														santé
-16979630904	viens ici!	bk		na yan!														phrase
68384730115	viens vite ! sinon je vais partir.			nan jonan n’o tɛ n bɛna taga!														phrase L12
-16729689175	vieux	bk		kɔrɔ														essentiel
27946171958	vieux (homme)	yq		cɛkɔrɔba														gens
27946171977	villageois	yq		dugumɔgɔ														gens
1538906597740	ville / région			duguba														
-17134557414	ville	bk		dugu														essentiel
27946172010	ville voisine	yq		gɛrɛfɛ dugu														
407185730834	visage			ɲa	"<img src=""_CIV.png"">"	N bena ɲa ko.		ɲɛ	"<img src=""_BFA.png"">"					ɲɛda / ɲɛna	"<img src=""_MLI.png"">"			corp essentiel MLI
1529678551514	vite / tôt	yq		joona (joona)														
-55856535145	vivre	bk		ɲɛnamaya														v
27249273076	voir	yq	(v.)	ye		I ka i ya mobili ye												vt
27946172124	voisin	yq		sigiɲɔgɔn														gens
-53958647746	voiture	yq		mobili														essentiel
68384336274	voler			sonyali kε		N'i t’a fε ka kaso kε, I ma kan ka sonyali kε.		soɲɛ			sɔɲa							essentiel
40026202749	voleur			soncɛ				soɲalikɛla										n
-53545395744	vomir	yq		fɔɔnɔ		A fɔɔnɔna												santé vi
4363400853	votre mère est venue.	bk		aw bamuso nan na.														phrase
-49188586989	vouloir (avoir)	bk	(v.)	fɛ														v
-47881692877	vous	bk		aw / alugu	"<img src=""_CIV.png"">"			a / aw	"<img src=""_BFA.png"">"					a / aw	"<img src=""_MLI.png"">"			MLI essentiel pp
27946171978	voyageur	yq		dugutagala														gens
27946171966	voyelle	yq		dafanin														
-54727486070	vraiment	yq		tiɲɛ tiɲɛ	"<img src=""_CIV.png"">"			tiɲɛn na			tigitigi							essentiel
1529143433529	week-end	yq		wikɛni				lɔgɔkun laban na										calendrier
27809169057	yeux	yq		ɲadenw				ɲɛw			ɲɛdenw							corp
e9353203-9240-4112-b1a9-a6d502980c0d	SYNCDATE			anki	20200627121053			sheets	20200620111210									
5826eb35-1ffb-4c00-9c87-a5524498ab4a	jamais (never)			fewu														
daabad35-c62c-4fd9-a2c8-8103b16d21fd	complètement			pewu		Domuni bana pewu												
848a5746-4503-435d-8a05-514144b3b49c	éternelle			banbali														
69417151835	parler doucement	musa		dajukɔrɔ kuma fɔ														
27783419424	il nous a oublié			a ɲinɛna an kɔ														wt
69415607847	est-ce que le poisson est pire que la viande?	kodi		jɛgɛ ma di ni sogo ye wa?														
9783eddb-def7-4658-a22b-2995eeb440bf	conviction / point de vue	yq		fɛta									export					marked
2c3d6186-bbc6-4729-bc53-38f986157a40	amical			teriman														
69690639735	réussir			ɲana														
69935434954	Que c'est... x ou y.	wt		x... wo y...														v
69916885057	que dieu vous accompagne			ala ka ɲuman do		partir				ala ka ɲuman se								
69921165450	Que dieu fasse que nous soyons d'accord			Ala y' an ben sen na	"<img src=""_CIV.png""><div>Odienné</div>"													phrase
69922410595	aucun	kodi		si		Mɔgɔ si ma ta tugun												essentiel
69922483377	aucun homme n'est parti	kodi		mɔgɔ si ma ta tugun														phrase
70005250618	ce qu'il a pris. c'est à moi.	kodi		a ka min ta. n ta lo.														
70271108613	il y a longtemps			wagati jan tɛmɛni				fɔlɔ fɔlɔ										
70307723643	court			surun		N ma surun ni bɛɛ ye												
70356231418	si oui..   (dans ce cas...)			n'o lo														
70648997097	sourds			tulogwɛlɛnw														
70809314191	il a trouvé une solution	dico		a ka cogo sɔrɔ														
70809341877	n'importe comment	dico		cogo o cogo														phrase
70809381847	de toutes les façons possibles	dico		cogo bɛɛ la														phrase
70809424450	de cette façon	dico		o cogo la														phrase
70809451217	d'une autre façon	dico		cogo wɛrɛ la														phrase
70809485089	chacun a sa prope manière	dico		mɔgɔ bɛɛ ni a cogo														phrase
70809882964	meilleur / préférable	dico		fisa		Jumɛn ka fisa aw ma?												
70809962274	lequel est le meilleur pour vous ?	dico		jumɛn ka fisa aw ma?														
3b9a3b6d-10bd-43e1-9e8f-01cbca0eb834	à l'envers	yq		a ɲɛɛ jugu kan														
e506434d-e343-411c-875f-8374151055eb	il y a quelques années	yq		a saan damanin ye nin ye														
72a17002-5089-4c1d-8a33-b13fe514894f	de bien des façons	yq		cogoya caaman na														
90e182fd-80ba-4239-8438-6d2b470f93c2	bègue	yq		dagwara														
c8e0d22b-de46-47f4-ae69-b85b49fd2a0c	du début à la fin	yq		daminɛ na fɔɔ ka taga se a laban na														
ee709b4c-c85a-4ae1-9728-5b083ae0d5e9	commencement / début		(n.)	daminɛ 														
3f4ab054-450d-44d6-872b-b30c6f08f9b8	couvercle	yq		datugunan														
ab344d4a-3a50-4dec-becf-7535283127e6	nuit / ténèbre / obscurité	yq		dibi														
94978d99-5e23-4c73-b7ad-bf244b68ff3e	bénir	yq	(v.)	duga														
df14ff8f-2732-4af9-a3e7-c7102d40615f	pensée / méditation	yq		miirili				miiriya										
25b96257-feb8-400a-9417-709a96a1da08	mûr (fruit)	yq		mɔnlen		need example												
f4385255-ce4b-4369-85ec-e8ef33c0dd00	rebelle	yq		murutilen														
bc269d6a-b62a-4056-af51-489a70e2ef94	rébellion	yq		murutili														
282f35ae-118f-4eeb-bb65-68f4501ebc39	froid	yq		nɛnɛ														
d1e9d991-45f5-43c7-9dc0-25fe9c3997a7	lumière / foudre	yq		yeelen														
70879497894	dis à musa de venir			a fɔ musa ye ko a ye na														
70892333380	différance	dico	(n.)	danfara		Manje ni mangoro danfara ye jumɛn ye ?		faranfasi	wt									
71052749651	masculin			cɛman														
71247074451	comment dire ceci en jula?			nin be fɔ di julakan na?														essentiel marked
71247154778	que veut dire ceci en français			nin kɔrɔ ko di fransikan na?														essentiel marked
71324439844	même si / même lorsque			hali ni		Hali ni kunko bena kɛ												
71326956025	murir			mɔ		Baranda mɔna wa?  O ma mɔ fɔlɔ												
71327080839	est-ce que les bananes sont mûres?  ils ne sont pas mûres encore.			barandaw mɔna wa?  o ma mɔ fɔlɔ														phrase
71327834946	mûre			mɔnin		A mɔnin lo												
71501212861	la prochaine fois	wt		siɲɛ wɛrɛ														
72249484838	comme / par exemple			i n'a fɔ		A b'i n'a fɔ												
72249986352	c'est comme... / il semble que...			a b'i n'a fɔ...														
72250025464	He is hard headed as a donkey			A kunkolo ka gwɛlɛ i n'a fɔ fali ta														
72250099349	comme dans la mosqué...			i n'a fɔ misali la														phrase
72342517159	écouter			mɛnni kɛ		Mɛnni kɛ i facɛ fɛ												
72353186940	apprendre / enseigner			karan		I be julakan karan wa?  /   N tun ka karan kɛ.		kalan										v vi vt
74934035944	je vais laver la voiture			n be taga mobili ko														phrase
74934115902	je vais faire laver la voitre			n be taga mobili d'o ma o b'a ko				n be taa mobili di k'a ko										phrase
1529143433504	guinée-bissao	yq		laginɛ biso														geo
1529143433505	guinée equatoriale	yq		laginɛ ekuwat.														geo
-55856535108	cheval	bk		soo														animal
75638259339	je n'ai pas beaucoup d'argent			wari caman tɛ ne fɛ	"<img src=""_CIV.png""><br>"									Wari caman tɛ n bolo	"<img src=""_MLI.png""><br>"			phrase
1527665647506	ça ressemble à …	yq		a bɔnin be …ma		A bɔnin be mun le ma ?												wt
79424167447	de même			o cogo kelen na														
79424339786	Comment dire banane en jula?			"""banane"" be fɔ cogo di julakan na ?"		baranda /namasa												phrase
-17944876358	déscendre 	dico	(v.)	jigi		N be jigi yan												vi
1529599765397	provoquer	jl 8		darabɔ														vt l7
1529599765573	bureau	jl 21		biro														
27946172077	boeuf			misi tora														animal
80302089081	crab			gangan														
80302779672	il est avare			a tɛgɛ ka gwɛlɛ														
27783419497	respecter / suivre		(v.)	labato		i bena desiziɔn labato wa?												add wt
80846004280	lorsque  / quand / au moment			tuma min na														
81066709840	car / en effet / ainsi		(conj.)	bari														
81242668921	compter / valider			jati			i be barra jati cogo di											
81449985952	de nouveau / encore une fois			kokura														
81673702534	margouillat			basa														animal
81675397872	punaise			dabi														animal
81675422377	flame				tamɛnɛ													
81675450532	massue / bâton			gwere		a k'a bugɔ ni gwere ye												
81675618790	troue			dingɛ			Ni i ka dinga sogi, i bɛna ji sɔrɔ.	dinga										
82052595441	rire			yɛlɛko				yɛlɛ									laugh	v vi
1529143433476	jalousie	wt	(n.)	ŋangoya														marked
1529599765334	nom de famille			jamu			I jamu be di?											
1529599765549	cousine	dico		kanimɛmuso														gens
1538505721010	grand père			mamacɛ														gens
27783419432	oublier		vi vt	ɲina														wt
6684371870	oncle paternel			benɔgɔcɛ														gens
68e79ae2-d928-450f-83c1-b1dd07727ac2	tunyan	yd		vrai														
c393ce53-198c-4261-bc5b-2906166c5474	mois de ramadan	yd		sunkalo														calendrier
a358bef1-250a-48d6-a38c-8e1b0ee4300e	au lieu que	yd		sani														l12 essentiel
fc6c3347-eadd-495d-900e-2ac01cfad26b	Allons vite avant qu’il ne pleuve.	yd		An ye taga jonan yani sanji bɛ ben.														phrase l12
f06c2f57-a9d5-44e8-bda4-a81de099a0fc	Si tu creuses un trou, tu auras de l’eau.	yd		Ni i ka dinga sogi, i bɛna ji sɔrɔ.														phrase l12
e25e5cfd-c3b9-4b69-8d49-25db55324230	Depuis une année, ils se combattent	yd		Kabini san timinin, o bɛ nyɔgɔn kɛlɛ la														phrase l12
8df3cccf-b215-40af-862b-19f79af95420	Avant qu'ils viennent, on avait fini le travail complètement	yd		Yani o bɛ nan, an tun ban na baara la kaban														phrase l12
e79c297f-9e1d-429a-ba5c-e14ee3032cb5	Nous leur avons donné l'argent, afin qu'ils nous aident	yd		An ka wari di o man, jango o bɛ an dɛmɛn														phrase l12
2928c372-75e2-4ac1-ba13-50f803af91e2	Si j'avais une voiture, j'allais partir à Bouké demain	yd		Ni mobili tun bɛ n bolo, n tun bɛna taga Bouaké sini														phrase l12
61ac0819-2cd4-4893-a89b-9aa6af5e1782	Ils ont fait tout le travail, avant de sortir	yd		O ka baara bɛɛ kɛ kasɔrɔ ka bɔ														phrase l12
8ca3a386-0bce-4fee-b777-44cc79e10147	Il a payé tous les travailleurs, pourqu'ils réglent leurs problèmes	yd		A ka baarakɛlaw bɛɛ sara jango o bɛ o ya kunkoyaw nyanabɔ														phrase l12
c000eda0-9a31-49c9-8293-d4b47c77d986	Ils m'ont respecté, sinon je n'allais pas les recevoir	yd		O ka n bonya, n’o tɛ n tun tɛna o bissimila (recevoir)		kunkoyaw nyanabɔ (régler leur problèmes)												phrase l12
a5716214-0eea-4d26-8352-f13aad33e1e3	salamandre			selandri														animal
77b53796-7077-4267-a92a-f84ba462de20	avocat			voca														nourriture
e04387a0-95c2-4223-bcb2-4151d237024b	attiekié			cɛke														nourriture
89e42a10-aa41-4fee-9fce-911324946399	viande de porc			lɛsogo														nourriture
bb2346fa-ea93-487c-bf45-1d753488b632	où	yd		mini				min										essentiel question l11
71f387f1-37b9-4df1-b3eb-d27bb1ccb348	Ali travaille avec la machette			Ali bɛ baarakɛ ni bese ye													Ali works with a machettee	phrase l13
393b722a-efd7-4f0b-8e9d-d4d116231900	Siriki est parti avec sa petite sœur			Siriki taga la ni a dɔgɔmuso ye													Siriki left with his litttle sister	phrase l13
2c3f284b-cf59-4be9-8bfb-acdef3a6781b	Le chasseur a tué l’animal avec un fusil			Donsocɛ ka sogo faga ni marifa ye													The hunter killed the animal wiith a gun	phrase l13
4186273b-05ab-4eb1-9fa3-a4183e1c2d70	J’écris avec un bic			N bɛ sɛbɛli kɛ ni biki ye.													I write with a pen	phrase l13
2bd46a3b-7727-4d17-a44d-76d20d3efe2a	Aïcha a pris son café avec des omelettes			Aïcha ka kafe min ni sisɛfan yiranni ye													Aicha had her coffee with omelettes	l13 phrase
f8843f87-9198-4ba5-8fb8-298ba4f00b96	Penda et Diarra sont tous deux gros			Penda ni Diarra fila bɛɛ ka bon													Penda and Diarra are both fat	phrase l13
690df2a7-9fba-4ecd-bb92-ba403930d62f	Madou et moussa sont tous deux grands			Madu ni musa fila bɛɛ ka jan.													Madou and Moussa are both tall	phrase l13
50dc6928-b42c-4d7e-8ba3-771e6f833d57	Siriki et amadou sont tous deux riches			Wari bε Siriki ni Amadou fila bɛɛ boro/fɛ.													Siriki and Amadou are both rich	phrase l13
79743890-0e5d-4ec2-9949-5fc5e8cd6fb1	Ali et Youssouf sont tous deux intelligents			Ali ni Youssouf fila bɛɛ hakili ka di													Ali and Yousouf are both intelligent	phrase l13
a8c55c85-2c9b-453f-bc92-e9b763b40e99	Ce monsieur et sa femme sont tous deux méchants			Cɛ nin ni a muso fila bɛɛ ka jugu													This man and his wife are both mean	phrase l13
0e7f3ca1-2ab8-4ebd-94d0-604abea36ca2	Ils sont tous deux gentils			O fila bɛɛ ka nyi													They are both nice	phrase l13
66738ea6-14a9-43c0-9d18-e47d46812f76	Penda est plus grosse que Diarra.			Penda ka bon ni Diarra ye				Penda ka bon katimi Diarra kan									Penda est fatter than Diarra	phrase l13
e2c7a77c-ab4e-4b63-86e4-a2b1d7f49417	Madou est plus grand que Moussa			Madu ka jan ni Musa ye				Madu ka jan katimi Musa kan									Madou est bigger than Moussa	phrase l13
7eca9b71-5e24-4e08-a9d9-22575b155255	Siriki a plus l’argent qu’Amadou			Wari bε Siriki boro ni Amadu ye		(est plus riche)&nbsp;		Wari bε Siriki boro katimi Amadu kan									Siriki is richer than Amadou	l13 phrase
a0adf8f6-fd39-4c26-92cb-f7316fbae8af	Ali est plus grand que Youssouf			Ali ka jan ni Yusuf ye				Ali ka jan katimi Yusuf kan									Ali est taller than Youssouf	phrase l13
9eea7810-f876-40cd-8211-955ede0db870	Les habitants de Bouaké sont plus gentils que les Abidjanais			Buakekaw ka nyi ni Abidjankaw ye				Buakekaw ka nyi katimi Abidjankaw kan									The inhabitants of Bouaké are nicer than those in Abidjan	phrase l13
2e42b35f-0325-4afb-9cc3-f3c71e9d0b2a	Penda et Diarra ont la même forme			Penda ni Diarra bonya ye kelen ye													Penda and Diarra look the same	phrase l13
87a381e7-db2e-468c-8c2a-d16c19df24c3	Madou et Moussa ont la même taille			Madu ni musa janya ye kelen ye													Madou and Moussa are the same size	phrase l13
4419af93-9648-4a2d-a5bc-b705d8c6c1c0	Siriki et Amadou ont le même âge			Siriki ni Amadu sanjida ye kelen ye.													Siriki and Amadou are the same age	phrase l13
2395a69a-d5a4-4171-a0cf-bdab021757b8	Madou et ses frères ont les mêmes amis			Madu n’a dɔgɔcɛ ye kelen ye													Madou and his brothers have the same friends	phrase l13
f55b75a1-8db4-435b-9871-9e9ca2d38280	Madou et ses petits frères ont les mêmes comportements			Madu n’a dɔgɔcɛw jogo ye kelen ye													Madout and his litltle brothers have the same reputation	phrase l13
1527665647684	soeur consanguine	cj		badenmuso														gens
-55856535101	chien	yq		wulu													dog	essentiel animal
82192290690	termite		(n.)	bagaman													termite	animal
82192346631	effrayer		(v.)	bagabaga		a ka den bagabaga											scare	animal
9304b3b6-bfcf-4a18-9a87-2e24ff376169	cigarette			sikɛrɛti				Ali ko: o lya lakɔlifa bɛ sikɛrɛti min									cigarette	emprunt
9c227fa9-158b-4de6-8857-595f09428e50	jus d'orange			lemuruji														nourriture
d0f385af-7e2b-4e39-a087-aa0ca7bd87a2	Imam			limamu														
e1e9d849-1fc6-41b7-90a8-831eaf7e6ff8	authorités	yd		tɔnbatigiw														
c24330dd-ef88-4912-a8e8-213294f6de20	fois		(n.)	siɲɛ				siyen										delete
7aafeb0f-638d-46fa-a806-43a97093006b	autres		(adj.)	tow			A ka nyi, nanfen tɔw bɛ n fɛ so kɔnɔ											
20c86aa2-d037-4370-b565-a21d8b5ca033	avoir raison		(exp.)	jo le			i jo le			o ka jo di an ma			a jo te fix					
aa3c319d-c086-4890-b1ff-f3af2fa846e3	attaché			siri			Ka kɔgɔbɔrɔ fitinin ni sunbara siri kelen di i ma wa ?											
20c3ba16-ef25-4174-b47d-9e19825f2d72	tas			layɔrɔ			N bɛ gɔyɔ layɔrɔ saba fɛ ani jaba layɔrɔ kelen											
b8955dec-d2c7-4383-be37-0851c0b94144	Ils vont entendre		(exp.)	O bena a mɛn														salutations
39ba3604-99f9-4d21-82eb-9a9bf049fb71	panier		(n.)	segi			I kana i yɛrɛ sɛgɛ,											
f62b5f7e-ad10-42ec-aee8-8ce38f03896a	C'est Aminata qui m'a montré votre boucherie			Aminata le k'i ya sogofeereyɔɔrɔ yira n na														
45cd752d-df5e-497a-8a17-6ee50a1a8c01	l'argent aussi n'est pas facile à trouver			wari fana sɔrɔ ma di														
ea54584b-7427-4a4b-9079-34e1be908b81	Je vais transmettre la salutation			I ya foli bɛna se o ma														salutations
32b6fc4b-24df-4afc-8c26-6edb56019616	Laisse le à 3000 F			a to kɛme woro la														
a6e21d25-1c91-4d44-9b6c-8462749e25c1	Tu t'apelles bien Amadou?			Ile tɔgɔ ye Amadu kɛ?														
84f64946-dc93-4242-9481-de6e6ea57cf6	expliquer			ɲyanfɔ			i n’a fɔ Aminata ka nyanfɔ cogo min.											
04efe3c9-8a2c-4bff-b965-357cdb09871a	sachet			manan			Lɔ, n bena nanfenw bɛɛ bila manan kelen kɔnɔ											